{
  "build_target": {
    "name": "reef"
  },
  "uri": "gs://chromeos-prebuilt/board/reef/postsubmit-R77-12271.0.0-7775-8910709858450730096/packages/",
  "sysroot": {
    "path": "/build/reef"
  },
  "package_index_files": []
}
