# device: Apple Magic Mouse
# bit: 1F 00 00 00 00 00 00 00
# key: 00 00 00 00 00 00 00 00 00 00 00 00 00 00 00 00 00 00 00 00 00 00 00 00 00 00 00 00 00 00 00 00 00 00 03 00 00 00 00 00 20 E5 00 00 00 00 00 00 00 00 00 00 00 00 00 00 00 00 00 00 00 00 00 00 00 00 00 00 00 00 00 00 00 00 00 00 00 00 00 00 00 00 00 00 00 00 00 00 00 00 00 00 00 00 00 00
# rel: 03 00 00 00 00 00 00 00
# abs: 00 00 00 00 00 80 73 02
# led: 00 00 00 00 00 00 00 00
# prp: 01 00 00 00 00 00 00 00
# absinfo: 47 0 15 0 0 0
# absinfo: 48 0 1020 4 0 0
# absinfo: 49 0 1020 4 0 0
# absinfo: 52 -31 32 1 0 0
# absinfo: 53 -1100 1258 4 0 26
# absinfo: 54 -1589 2047 4 0 70
# absinfo: 57 0 65535 0 0 0
E: 1536.140913 0003 002f 0
E: 1536.140913 0003 0039 -1
E: 1536.140913 0003 002f 1
E: 1536.140913 0003 0039 -1
E: 1536.140913 0003 002f 2
E: 1536.140913 0003 0039 -1
E: 1536.140913 0003 002f 3
E: 1536.140913 0003 0039 -1
E: 1536.140913 0003 002f 4
E: 1536.140913 0003 0039 -1
E: 1536.140913 0003 002f 5
E: 1536.140913 0003 0039 -1
E: 1536.140913 0003 002f 6
E: 1536.140913 0003 0039 -1
E: 1536.140913 0003 002f 7
E: 1536.140913 0003 0039 -1
E: 1536.140913 0003 002f 8
E: 1536.140913 0003 0039 -1
E: 1536.140913 0003 002f 9
E: 1536.140913 0003 0039 -1
E: 1536.140913 0003 002f 10
E: 1536.140913 0003 0039 -1
E: 1536.140913 0003 002f 11
E: 1536.140913 0003 0039 -1
E: 1536.140913 0003 002f 12
E: 1536.140913 0003 0039 -1
E: 1536.140913 0003 002f 13
E: 1536.140913 0003 0039 -1
E: 1536.140913 0003 002f 14
E: 1536.140913 0003 0039 -1
E: 1536.140913 0003 002f 15
E: 1536.140913 0003 0039 -1
E: 1536.140913 0003 002f 6
E: 1536.140913 0000 0000 0
E: 1536.141821 0002 0000 -5
E: 1536.141821 0000 0000 0
E: 1536.151864 0002 0000 -5
E: 1536.151864 0000 0000 0
E: 1536.152999 0002 0000 -5
E: 1536.152999 0002 0001 -1
E: 1536.152999 0000 0000 0
E: 1536.163112 0002 0000 -4
E: 1536.163112 0000 0000 0
E: 1536.174266 0002 0000 -4
E: 1536.174266 0000 0000 0
E: 1536.185541 0002 0000 -2
E: 1536.185541 0000 0000 0
E: 1536.196756 0002 0000 -2
E: 1536.196756 0000 0000 0
E: 1536.208191 0002 0000 -2
E: 1536.208191 0000 0000 0
E: 1536.219279 0002 0000 -3
E: 1536.219279 0000 0000 0
E: 1536.230896 0002 0000 -5
E: 1536.230896 0000 0000 0
E: 1536.242132 0002 0000 -3
E: 1536.242132 0002 0001 1
E: 1536.242132 0000 0000 0
E: 1536.252939 0002 0000 -2
E: 1536.252939 0000 0000 0
E: 1536.264195 0002 0000 -3
E: 1536.264195 0000 0000 0
E: 1536.275541 0002 0000 -5
E: 1536.275541 0000 0000 0
E: 1536.286777 0002 0000 -5
E: 1536.286777 0002 0001 1
E: 1536.286777 0000 0000 0
E: 1536.298062 0002 0000 -3
E: 1536.298062 0000 0000 0
E: 1536.309348 0002 0000 -2
E: 1536.309348 0000 0000 0
E: 1536.320457 0002 0000 -2
E: 1536.320457 0000 0000 0
E: 1536.331776 0002 0000 -1
E: 1536.331776 0000 0000 0
E: 1536.343044 0002 0000 -2
E: 1536.343044 0000 0000 0
E: 1536.354348 0002 0000 -2
E: 1536.354348 0000 0000 0
E: 1536.365457 0002 0000 -1
E: 1536.365457 0000 0000 0
E: 1536.376698 0002 0000 -3
E: 1536.376698 0000 0000 0
E: 1536.387941 0002 0000 -4
E: 1536.387941 0000 0000 0
E: 1536.399195 0002 0000 -4
E: 1536.399195 0000 0000 0
E: 1536.410604 0002 0000 -4
E: 1536.410604 0002 0001 1
E: 1536.410604 0000 0000 0
E: 1536.421695 0002 0000 -5
E: 1536.421695 0000 0000 0
E: 1536.433050 0002 0000 -5
E: 1536.433050 0000 0000 0
E: 1536.444275 0002 0000 -4
E: 1536.444275 0000 0000 0
E: 1536.455599 0002 0000 -2
E: 1536.455599 0002 0001 1
E: 1536.455599 0000 0000 0
E: 1536.466699 0002 0000 -2
E: 1536.466699 0000 0000 0
E: 1536.478061 0002 0000 -2
E: 1536.478061 0000 0000 0
E: 1536.489295 0002 0000 -2
E: 1536.489295 0000 0000 0
E: 1536.500457 0002 0000 -2
E: 1536.500457 0002 0001 1
E: 1536.500457 0000 0000 0
E: 1536.513106 0002 0000 -2
E: 1536.513106 0000 0000 0
E: 1536.523054 0002 0000 -4
E: 1536.523054 0000 0000 0
E: 1536.534195 0002 0000 -5
E: 1536.534195 0000 0000 0
E: 1536.545537 0002 0000 -4
E: 1536.545537 0002 0001 1
E: 1536.545537 0000 0000 0
E: 1536.556698 0002 0000 -5
E: 1536.556698 0000 0000 0
E: 1536.568091 0002 0000 -6
E: 1536.568091 0000 0000 0
E: 1536.579267 0002 0000 -6
E: 1536.579267 0002 0001 1
E: 1536.579267 0000 0000 0
E: 1536.590592 0002 0000 -6
E: 1536.590592 0000 0000 0
E: 1536.601696 0002 0000 -7
E: 1536.601696 0000 0000 0
E: 1536.614203 0002 0000 -7
E: 1536.614203 0000 0000 0
E: 1536.624176 0002 0000 -6
E: 1536.624176 0000 0000 0
E: 1536.635481 0002 0000 -4
E: 1536.635481 0002 0001 1
E: 1536.635481 0000 0000 0
E: 1536.646670 0002 0000 -5
E: 1536.646670 0000 0000 0
E: 1536.657936 0002 0000 -4
E: 1536.657936 0000 0000 0
E: 1536.669263 0002 0000 -4
E: 1536.669263 0000 0000 0
E: 1536.680413 0002 0000 -4
E: 1536.680413 0000 0000 0
E: 1536.691847 0002 0000 -4
E: 1536.691847 0000 0000 0
E: 1536.703047 0002 0000 -6
E: 1536.703047 0000 0000 0
E: 1536.714172 0002 0000 -6
E: 1536.714172 0000 0000 0
E: 1536.725540 0002 0000 -7
E: 1536.725540 0002 0001 1
E: 1536.725540 0000 0000 0
E: 1536.736693 0002 0000 -7
E: 1536.736693 0000 0000 0
E: 1536.748051 0002 0000 -5
E: 1536.748051 0000 0000 0
E: 1536.759199 0002 0000 -6
E: 1536.759199 0000 0000 0
E: 1536.770482 0002 0000 -5
E: 1536.770482 0000 0000 0
E: 1536.781781 0002 0000 -5
E: 1536.781781 0000 0000 0
E: 1536.792998 0002 0000 -3
E: 1536.792998 0000 0000 0
E: 1536.804173 0002 0000 -5
E: 1536.804173 0000 0000 0
E: 1536.815450 0002 0000 -6
E: 1536.815450 0000 0000 0
E: 1536.826692 0002 0000 -9
E: 1536.826692 0002 0001 -1
E: 1536.826692 0000 0000 0
E: 1536.837923 0002 0000 -7
E: 1536.837923 0000 0000 0
E: 1536.849264 0002 0000 -9
E: 1536.849264 0000 0000 0
E: 1536.860430 0002 0000 -7
E: 1536.860430 0000 0000 0
E: 1536.871779 0002 0000 -4
E: 1536.871779 0000 0000 0
E: 1536.882940 0002 0000 -5
E: 1536.882940 0000 0000 0
E: 1536.894270 0002 0000 -5
E: 1536.894270 0000 0000 0
E: 1536.905434 0002 0000 -5
E: 1536.905434 0000 0000 0
E: 1536.916673 0002 0000 -4
E: 1536.916673 0002 0001 -1
E: 1536.916673 0000 0000 0
E: 1536.927940 0002 0000 -4
E: 1536.927940 0000 0000 0
E: 1536.939265 0002 0000 -3
E: 1536.939265 0000 0000 0
E: 1536.950522 0002 0000 -3
E: 1536.950522 0000 0000 0
E: 1536.961803 0002 0000 -3
E: 1536.961803 0000 0000 0
E: 1536.973065 0002 0000 -2
E: 1536.973065 0000 0000 0
E: 1536.984242 0002 0000 -4
E: 1536.984242 0000 0000 0
E: 1536.995594 0002 0000 -4
E: 1536.995594 0000 0000 0
E: 1537.006654 0002 0000 -3
E: 1537.006654 0000 0000 0
E: 1537.018047 0002 0000 -4
E: 1537.018047 0000 0000 0
E: 1537.029323 0002 0000 -4
E: 1537.029323 0000 0000 0
E: 1537.040513 0002 0000 -3
E: 1537.040513 0000 0000 0
E: 1537.053089 0002 0000 -4
E: 1537.053089 0000 0000 0
E: 1537.062898 0002 0000 -6
E: 1537.062898 0000 0000 0
E: 1537.074174 0002 0000 -6
E: 1537.074174 0000 0000 0
E: 1537.085424 0002 0000 -8
E: 1537.085424 0000 0000 0
E: 1537.096730 0002 0000 -9
E: 1537.096730 0000 0000 0
E: 1537.107918 0002 0000 -8
E: 1537.107918 0000 0000 0
E: 1537.119170 0002 0000 -4
E: 1537.119170 0000 0000 0
E: 1537.130429 0002 0000 -5
E: 1537.130429 0000 0000 0
E: 1537.141871 0002 0000 -3
E: 1537.141871 0000 0000 0
E: 1537.152917 0002 0000 -5
E: 1537.152917 0000 0000 0
E: 1537.164166 0002 0000 -5
E: 1537.164166 0002 0001 -1
E: 1537.164166 0000 0000 0
E: 1537.175650 0002 0000 -7
E: 1537.175650 0000 0000 0
E: 1537.186675 0002 0000 -7
E: 1537.186675 0000 0000 0
E: 1537.198347 0002 0000 -8
E: 1537.198347 0002 0001 -1
E: 1537.198347 0000 0000 0
E: 1537.209171 0002 0000 -7
E: 1537.209171 0000 0000 0
E: 1537.220552 0002 0000 -6
E: 1537.220552 0000 0000 0
E: 1537.231748 0002 0000 -6
E: 1537.231748 0000 0000 0
E: 1537.243334 0002 0000 -3
E: 1537.243334 0000 0000 0
E: 1537.254169 0002 0000 -4
E: 1537.254169 0000 0000 0
E: 1537.265508 0002 0000 -4
E: 1537.265508 0000 0000 0
E: 1537.276674 0002 0000 -6
E: 1537.276674 0000 0000 0
E: 1537.287914 0002 0000 -6
E: 1537.287914 0000 0000 0
E: 1537.299169 0002 0000 -9
E: 1537.299169 0000 0000 0
E: 1537.310639 0002 0000 -10
E: 1537.310639 0000 0000 0
E: 1537.321752 0002 0000 -10
E: 1537.321752 0000 0000 0
E: 1537.333081 0002 0000 -7
E: 1537.333081 0000 0000 0
E: 1537.344246 0002 0000 -7
E: 1537.344246 0000 0000 0
E: 1537.355566 0002 0000 -4
E: 1537.355566 0000 0000 0
E: 1537.366671 0002 0000 -4
E: 1537.366671 0000 0000 0
E: 1537.389172 0002 0000 -3
E: 1537.389172 0000 0000 0
E: 1537.390423 0002 0000 -4
E: 1537.390423 0000 0000 0
E: 1537.400563 0002 0000 -4
E: 1537.400563 0002 0001 -1
E: 1537.400563 0000 0000 0
E: 1537.411688 0002 0000 -7
E: 1537.411688 0000 0000 0
E: 1537.422919 0002 0000 -8
E: 1537.422919 0000 0000 0
E: 1537.434709 0002 0000 -7
E: 1537.434709 0000 0000 0
E: 1537.445508 0002 0000 -8
E: 1537.445508 0000 0000 0
E: 1537.456674 0002 0000 -8
E: 1537.456674 0000 0000 0
E: 1537.467919 0002 0000 -8
E: 1537.467919 0000 0000 0
E: 1537.479149 0002 0000 -8
E: 1537.479149 0000 0000 0
E: 1537.490551 0002 0000 -7
E: 1537.490551 0000 0000 0
E: 1537.501670 0002 0000 -7
E: 1537.501670 0000 0000 0
E: 1537.512986 0002 0000 -6
E: 1537.512986 0000 0000 0
E: 1537.524246 0002 0000 -5
E: 1537.524246 0000 0000 0
E: 1537.535428 0002 0000 -5
E: 1537.535428 0000 0000 0
E: 1537.547115 0002 0000 -5
E: 1537.547115 0000 0000 0
E: 1537.557996 0002 0000 -5
E: 1537.557996 0000 0000 0
E: 1537.569245 0002 0000 -5
E: 1537.569245 0000 0000 0
E: 1537.580507 0002 0000 -4
E: 1537.580507 0000 0000 0
E: 1537.591654 0002 0000 -5
E: 1537.591654 0000 0000 0
E: 1537.602891 0002 0000 -4
E: 1537.602891 0000 0000 0
E: 1537.614216 0002 0000 -5
E: 1537.614216 0000 0000 0
E: 1537.625384 0002 0000 -4
E: 1537.625384 0000 0000 0
E: 1537.636648 0002 0000 -2
E: 1537.636648 0000 0000 0
E: 1537.648049 0002 0000 -5
E: 1537.648049 0000 0000 0
E: 1537.659243 0002 0000 -7
E: 1537.659243 0000 0000 0
E: 1537.670508 0002 0000 -7
E: 1537.670508 0000 0000 0
E: 1537.681729 0002 0000 -6
E: 1537.681729 0000 0000 0
E: 1537.693001 0002 0000 -6
E: 1537.693001 0000 0000 0
E: 1537.704150 0002 0000 -5
E: 1537.704150 0000 0000 0
E: 1537.715456 0002 0000 -5
E: 1537.715456 0000 0000 0
E: 1537.726731 0002 0000 -4
E: 1537.726731 0000 0000 0
E: 1537.737913 0002 0000 -3
E: 1537.737913 0000 0000 0
E: 1537.749239 0002 0000 -3
E: 1537.749239 0000 0000 0
E: 1537.760356 0002 0000 -2
E: 1537.760356 0000 0000 0
E: 1537.781797 0002 0000 -4
E: 1537.781797 0000 0000 0
E: 1537.790386 0002 0000 -2
E: 1537.790386 0000 0000 0
E: 1537.792950 0002 0000 -4
E: 1537.792950 0000 0000 0
E: 1537.805370 0002 0000 -4
E: 1537.805370 0000 0000 0
E: 1537.816639 0002 0000 -3
E: 1537.816639 0002 0001 1
E: 1537.816639 0000 0000 0
E: 1537.828000 0002 0000 -5
E: 1537.828000 0000 0000 0
E: 1537.850600 0002 0000 -4
E: 1537.850600 0000 0000 0
E: 1537.851668 0002 0000 -4
E: 1537.851668 0000 0000 0
E: 1537.861638 0002 0000 -4
E: 1537.861638 0000 0000 0
E: 1537.862908 0002 0000 -3
E: 1537.862908 0000 0000 0
E: 1537.872920 0002 0000 -2
E: 1537.872920 0000 0000 0
E: 1537.884324 0002 0000 -3
E: 1537.884324 0000 0000 0
E: 1537.895638 0002 0000 -4
E: 1537.895638 0000 0000 0
E: 1537.906645 0002 0000 -2
E: 1537.906645 0000 0000 0
E: 1537.917999 0002 0000 -2
E: 1537.917999 0000 0000 0
E: 1537.929326 0002 0000 -4
E: 1537.929326 0000 0000 0
E: 1537.940402 0002 0000 -4
E: 1537.940402 0000 0000 0
E: 1537.951824 0002 0000 -6
E: 1537.951824 0000 0000 0
E: 1537.963027 0002 0000 -4
E: 1537.963027 0000 0000 0
E: 1537.974292 0002 0000 -3
E: 1537.974292 0000 0000 0
E: 1537.985380 0002 0000 -4
E: 1537.985380 0000 0000 0
E: 1537.996797 0002 0000 -4
E: 1537.996797 0000 0000 0
E: 1538.007900 0002 0000 -4
E: 1538.007900 0000 0000 0
E: 1538.019227 0002 0000 -5
E: 1538.019227 0000 0000 0
E: 1538.030615 0002 0000 -5
E: 1538.030615 0000 0000 0
E: 1538.041622 0002 0000 -7
E: 1538.041622 0000 0000 0
E: 1538.052976 0002 0000 -8
E: 1538.052976 0000 0000 0
E: 1538.064233 0002 0000 -7
E: 1538.064233 0000 0000 0
E: 1538.075385 0002 0000 -5
E: 1538.075385 0000 0000 0
E: 1538.086727 0002 0000 -5
E: 1538.086727 0000 0000 0
E: 1538.098000 0002 0000 -3
E: 1538.098000 0000 0000 0
E: 1538.109316 0002 0000 -5
E: 1538.109316 0000 0000 0
E: 1538.120533 0002 0000 -4
E: 1538.120533 0000 0000 0
E: 1538.131614 0002 0000 -4
E: 1538.131614 0000 0000 0
E: 1538.142933 0002 0000 -4
E: 1538.142933 0000 0000 0
E: 1538.154238 0002 0000 -3
E: 1538.154238 0000 0000 0
E: 1538.165582 0002 0000 -3
E: 1538.165582 0000 0000 0
E: 1538.176754 0002 0000 -2
E: 1538.176754 0000 0000 0
E: 1538.187996 0002 0000 -2
E: 1538.187996 0000 0000 0
E: 1538.199364 0002 0000 -3
E: 1538.199364 0000 0000 0
E: 1538.210481 0002 0000 -5
E: 1538.210481 0000 0000 0
E: 1538.221643 0002 0000 -5
E: 1538.221643 0000 0000 0
E: 1538.232915 0002 0000 -7
E: 1538.232915 0000 0000 0
E: 1538.244228 0002 0000 -4
E: 1538.244228 0000 0000 0
E: 1538.255551 0002 0000 -4
E: 1538.255551 0000 0000 0
E: 1538.266648 0002 0000 -2
E: 1538.266648 0000 0000 0
E: 1538.277989 0002 0000 -2
E: 1538.277989 0000 0000 0
E: 1538.289168 0002 0000 -3
E: 1538.289168 0000 0000 0
E: 1538.300471 0002 0000 -3
E: 1538.300471 0000 0000 0
E: 1538.311633 0002 0000 -3
E: 1538.311633 0000 0000 0
E: 1538.324242 0002 0000 -4
E: 1538.324242 0000 0000 0
E: 1538.334134 0002 0000 -5
E: 1538.334134 0000 0000 0
E: 1538.345475 0002 0000 -4
E: 1538.345475 0000 0000 0
E: 1538.356647 0002 0000 -5
E: 1538.356647 0000 0000 0
E: 1538.367917 0002 0000 -6
E: 1538.367917 0000 0000 0
E: 1538.379251 0002 0000 -6
E: 1538.379251 0000 0000 0
E: 1538.390475 0002 0000 -8
E: 1538.390475 0000 0000 0
E: 1538.402088 0002 0000 -7
E: 1538.402088 0000 0000 0
E: 1538.412828 0002 0000 -7
E: 1538.412828 0002 0001 -1
E: 1538.412828 0000 0000 0
E: 1538.424290 0002 0000 -7
E: 1538.424290 0000 0000 0
E: 1538.435476 0002 0000 -7
E: 1538.435476 0000 0000 0
E: 1538.447087 0002 0000 -6
E: 1538.447087 0000 0000 0
E: 1538.457997 0002 0000 -5
E: 1538.457997 0002 0001 -1
E: 1538.457997 0000 0000 0
E: 1538.469255 0002 0000 -4
E: 1538.469255 0000 0000 0
E: 1538.481752 0002 0000 -7
E: 1538.481752 0000 0000 0
E: 1538.491727 0002 0000 -7
E: 1538.491727 0002 0001 -1
E: 1538.491727 0000 0000 0
E: 1538.502795 0002 0000 -5
E: 1538.502795 0000 0000 0
E: 1538.514031 0002 0000 -1
E: 1538.514031 0000 0000 0
E: 1538.525450 0002 0000 -1
E: 1538.525450 0000 0000 0
E: 1538.536721 0002 0000 -1
E: 1538.536721 0000 0000 0
E: 1538.672116 0002 0000 -2
E: 1538.672116 0000 0000 0
E: 1538.682831 0002 0000 -4
E: 1538.682831 0000 0000 0
E: 1538.694132 0002 0000 -5
E: 1538.694132 0000 0000 0
E: 1538.705379 0002 0000 -6
E: 1538.705379 0000 0000 0
E: 1538.716777 0002 0000 -4
E: 1538.716777 0000 0000 0
E: 1538.727946 0002 0000 -4
E: 1538.727946 0000 0000 0
E: 1538.739239 0002 0000 -5
E: 1538.739239 0000 0000 0
E: 1538.750438 0002 0000 -5
E: 1538.750438 0000 0000 0
E: 1538.761776 0002 0000 -5
E: 1538.761776 0000 0000 0
E: 1538.772932 0002 0000 -6
E: 1538.772932 0000 0000 0
E: 1538.785431 0002 0000 -4
E: 1538.785431 0000 0000 0
E: 1538.795358 0002 0000 -5
E: 1538.795358 0000 0000 0
E: 1538.807052 0002 0000 -4
E: 1538.807052 0000 0000 0
E: 1538.817959 0002 0000 -4
E: 1538.817959 0000 0000 0
E: 1538.829214 0002 0000 -4
E: 1538.829214 0000 0000 0
E: 1538.840379 0002 0000 -4
E: 1538.840379 0000 0000 0
E: 1538.851696 0002 0000 -6
E: 1538.851696 0000 0000 0
E: 1538.862956 0002 0000 -8
E: 1538.862956 0000 0000 0
E: 1538.874227 0002 0000 -7
E: 1538.874227 0000 0000 0
E: 1538.886742 0002 0000 -5
E: 1538.886742 0000 0000 0
E: 1538.896687 0002 0000 -4
E: 1538.896687 0000 0000 0
E: 1538.907963 0002 0000 -5
E: 1538.907963 0000 0000 0
E: 1538.919132 0002 0000 -3
E: 1538.919132 0000 0000 0
E: 1538.930455 0002 0000 -3
E: 1538.930455 0000 0000 0
E: 1538.941619 0002 0000 -3
E: 1538.941619 0000 0000 0
E: 1538.952960 0002 0000 -2
E: 1538.952960 0000 0000 0
E: 1538.964131 0002 0000 -2
E: 1538.964131 0000 0000 0
E: 1538.975374 0002 0000 -4
E: 1538.975374 0000 0000 0
E: 1538.986695 0002 0000 -3
E: 1538.986695 0000 0000 0
E: 1538.997937 0002 0000 -2
E: 1538.997937 0000 0000 0
E: 1539.009192 0002 0000 -2
E: 1539.009192 0000 0000 0
E: 1539.021626 0002 0000 -4
E: 1539.021626 0000 0000 0
E: 1539.031610 0002 0000 -7
E: 1539.031610 0000 0000 0
E: 1539.042951 0002 0000 -9
E: 1539.042951 0002 0001 1
E: 1539.042951 0000 0000 0
E: 1539.054200 0002 0000 -8
E: 1539.054200 0000 0000 0
E: 1539.065445 0002 0000 -7
E: 1539.065445 0000 0000 0
E: 1539.076602 0002 0000 -8
E: 1539.076602 0002 0001 1
E: 1539.076602 0000 0000 0
E: 1539.087876 0002 0000 -7
E: 1539.087876 0000 0000 0
E: 1539.099281 0002 0000 -2
E: 1539.099281 0000 0000 0
E: 1539.110381 0002 0000 -1
E: 1539.110381 0000 0000 0
E: 1539.121617 0002 0000 -1
E: 1539.121617 0000 0000 0
E: 1539.132967 0002 0000 -3
E: 1539.132967 0000 0000 0
E: 1539.144197 0002 0000 -5
E: 1539.144197 0000 0000 0
E: 1539.155459 0002 0000 -4
E: 1539.155459 0000 0000 0
E: 1539.166701 0002 0000 -6
E: 1539.166701 0000 0000 0
E: 1539.177884 0002 0000 -6
E: 1539.177884 0000 0000 0
E: 1539.189214 0002 0000 -6
E: 1539.189214 0000 0000 0
E: 1539.200458 0002 0000 -4
E: 1539.200458 0002 0001 -1
E: 1539.200458 0000 0000 0
E: 1539.211703 0002 0000 -4
E: 1539.211703 0000 0000 0
E: 1539.222959 0002 0000 -3
E: 1539.222959 0000 0000 0
E: 1539.234210 0002 0000 -4
E: 1539.234210 0000 0000 0
E: 1539.245451 0002 0000 -7
E: 1539.245451 0000 0000 0
E: 1539.256624 0002 0000 -8
E: 1539.256624 0000 0000 0
E: 1539.267861 0002 0000 -10
E: 1539.267861 0000 0000 0
E: 1539.279137 0002 0000 -10
E: 1539.279137 0002 0001 -1
E: 1539.279137 0000 0000 0
E: 1539.290377 0002 0000 -8
E: 1539.290377 0000 0000 0
E: 1539.301774 0002 0000 -5
E: 1539.301774 0000 0000 0
E: 1539.313050 0002 0000 -5
E: 1539.313050 0000 0000 0
E: 1539.324193 0002 0000 -4
E: 1539.324193 0002 0001 -1
E: 1539.324193 0000 0000 0
E: 1539.335459 0002 0000 -4
E: 1539.335459 0000 0000 0
E: 1539.346612 0002 0000 -6
E: 1539.346612 0000 0000 0
E: 1539.357955 0002 0000 -6
E: 1539.357955 0000 0000 0
E: 1539.369112 0002 0000 -7
E: 1539.369112 0000 0000 0
E: 1539.380462 0002 0000 -8
E: 1539.380462 0000 0000 0
E: 1539.391623 0002 0000 -7
E: 1539.391623 0002 0001 1
E: 1539.391623 0000 0000 0
E: 1539.402927 0002 0000 -5
E: 1539.402927 0000 0000 0
E: 1539.415407 0002 0000 -4
E: 1539.415407 0002 0001 1
E: 1539.415407 0000 0000 0
E: 1539.425455 0002 0000 -3
E: 1539.425455 0000 0000 0
E: 1539.436783 0002 0000 -1
E: 1539.436783 0000 0000 0
E: 1539.459286 0002 0000 -1
E: 1539.459286 0000 0000 0
E: 1539.470378 0002 0000 -6
E: 1539.470378 0000 0000 0
E: 1539.481701 0002 0000 -8
E: 1539.481701 0000 0000 0
E: 1539.492936 0002 0000 -9
E: 1539.492936 0000 0000 0
E: 1539.504193 0002 0000 -6
E: 1539.504193 0000 0000 0
E: 1539.515456 0002 0000 -6
E: 1539.515456 0000 0000 0
E: 1539.526604 0002 0000 -3
E: 1539.526604 0000 0000 0
E: 1539.537936 0002 0000 -1
E: 1539.537936 0000 0000 0
E: 1539.560433 0002 0000 -1
E: 1539.560433 0000 0000 0
E: 1539.582917 0002 0000 -2
E: 1539.582917 0000 0000 0
E: 1539.594102 0002 0000 -5
E: 1539.594102 0000 0000 0
E: 1539.605425 0002 0000 -6
E: 1539.605425 0000 0000 0
E: 1539.616693 0002 0000 -6
E: 1539.616693 0000 0000 0
E: 1539.627852 0002 0000 -8
E: 1539.627852 0000 0000 0
E: 1539.639107 0002 0000 -6
E: 1539.639107 0000 0000 0
E: 1539.650481 0002 0000 -4
E: 1539.650481 0000 0000 0
E: 1539.661701 0002 0000 -3
E: 1539.661701 0000 0000 0
E: 1539.672853 0002 0000 -2
E: 1539.672853 0000 0000 0
E: 1539.673353 0003 002f 0
E: 1539.673353 0003 0039 -1
E: 1539.673353 0003 002f 1
E: 1539.673353 0003 0039 -1
E: 1539.673353 0003 002f 2
E: 1539.673353 0003 0039 -1
E: 1539.673353 0003 002f 3
E: 1539.673353 0003 0039 -1
E: 1539.673353 0003 002f 4
E: 1539.673353 0003 0039 -1
E: 1539.673353 0003 002f 5
E: 1539.673353 0003 0039 -1
E: 1539.673353 0003 002f 6
E: 1539.673353 0003 0039 -1
E: 1539.673353 0003 002f 7
E: 1539.673353 0003 0039 -1
E: 1539.673353 0003 002f 8
E: 1539.673353 0003 0039 -1
E: 1539.673353 0003 002f 9
E: 1539.673353 0003 0039 -1
E: 1539.673353 0003 002f 10
E: 1539.673353 0003 0039 -1
E: 1539.673353 0003 002f 11
E: 1539.673353 0003 0039 -1
E: 1539.673353 0003 002f 12
E: 1539.673353 0003 0039 -1
E: 1539.673353 0003 002f 13
E: 1539.673353 0003 0039 -1
E: 1539.673353 0003 002f 14
E: 1539.673353 0003 0039 -1
E: 1539.673353 0003 002f 15
E: 1539.673353 0003 0039 -1
