E: 19516.152489 0003 002f 0
E: 19516.152489 0003 0030 0
E: 19516.152489 0003 0031 0
E: 19516.152489 0003 0032 0
E: 19516.152489 0003 0033 0
E: 19516.152489 0003 0034 0
E: 19516.152489 0003 0035 436
E: 19516.152489 0003 0036 189
E: 19516.152489 0003 0037 0
E: 19516.152489 0003 0038 0
E: 19516.152489 0003 0039 2536
E: 19516.152489 0003 003a 8
E: 19516.152489 0003 003b 0
E: 19516.152489 0003 002f 1
E: 19516.152489 0003 0039 -1
E: 19516.152489 0003 002f 2
E: 19516.152489 0003 0039 -1
E: 19516.152489 0003 002f 3
E: 19516.152489 0003 0039 -1
E: 19516.152489 0003 002f 4
E: 19516.152489 0003 0039 -1
E: 19516.152489 0003 002f 5
E: 19516.152489 0003 0039 -1
E: 19516.152489 0003 002f 6
E: 19516.152489 0003 0039 -1
E: 19516.152489 0003 002f 7
E: 19516.152489 0003 0039 -1
E: 19516.152489 0003 002f 8
E: 19516.152489 0003 0039 -1
E: 19516.152489 0003 002f 9
E: 19516.152489 0003 0039 -1
E: 19516.152489 0003 002f 10
E: 19516.152489 0003 0039 -1
E: 19516.152489 0003 002f 11
E: 19516.152489 0003 0039 -1
E: 19516.152489 0003 002f 12
E: 19516.152489 0003 0039 -1
E: 19516.152489 0003 002f 13
E: 19516.152489 0003 0039 -1
E: 19516.152489 0003 002f 14
E: 19516.152489 0003 0039 -1
E: 19516.152489 0003 002f 0
E: 19516.152489 0001 0145 1
E: 19516.152489 0001 014a 1
E: 19516.152489 0000 0000 0
E: 19516.159244 0003 0036 192
E: 19516.159246 0003 003a 17
E: 19516.159271 0003 0001 192
E: 19516.159272 0003 0018 17
E: 19516.159274 0000 0000 0
E: 19516.169418 0003 0036 193
E: 19516.169420 0003 003a 22
E: 19516.169444 0003 0001 193
E: 19516.169445 0003 0018 22
E: 19516.169447 0000 0000 0
E: 19516.179522 0003 0035 439
E: 19516.179524 0003 0036 201
E: 19516.179525 0003 003a 26
E: 19516.179548 0003 0000 439
E: 19516.179549 0003 0001 201
E: 19516.179550 0003 0018 26
E: 19516.179552 0000 0000 0
E: 19516.189643 0003 0035 438
E: 19516.189645 0003 0036 195
E: 19516.189646 0003 003a 25
E: 19516.189670 0003 0000 438
E: 19516.189671 0003 0001 195
E: 19516.189672 0003 0018 25
E: 19516.189674 0000 0000 0
E: 19516.199766 0003 0035 440
E: 19516.199767 0003 0036 203
E: 19516.199768 0003 003a 30
E: 19516.199792 0003 0000 440
E: 19516.199793 0003 0001 203
E: 19516.199794 0003 0018 30
E: 19516.199796 0000 0000 0
E: 19516.219958 0003 0035 439
E: 19516.219960 0003 0036 197
E: 19516.219961 0003 003a 27
E: 19516.219985 0003 0000 439
E: 19516.219986 0003 0001 197
E: 19516.219987 0003 0018 27
E: 19516.219989 0000 0000 0
E: 19516.250276 0003 0036 196
E: 19516.250295 0003 0001 196
E: 19516.250297 0000 0000 0
E: 19516.260323 0003 003a 28
E: 19516.260350 0003 0018 28
E: 19516.260351 0000 0000 0
E: 19516.300681 0003 0036 195
E: 19516.300682 0003 003a 29
E: 19516.300700 0003 0001 195
E: 19516.300701 0003 0018 29
E: 19516.300702 0000 0000 0
E: 19516.341000 0003 003a 28
E: 19516.341044 0003 0018 28
E: 19516.341046 0000 0000 0
E: 19516.371266 0003 0035 441
E: 19516.371268 0003 0036 205
E: 19516.371269 0003 003a 33
E: 19516.371293 0003 0000 441
E: 19516.371294 0003 0001 205
E: 19516.371295 0003 0018 33
E: 19516.371297 0000 0000 0
E: 19516.411644 0003 0035 438
E: 19516.411646 0003 0036 196
E: 19516.411647 0003 003a 29
E: 19516.411671 0003 0000 438
E: 19516.411672 0003 0001 196
E: 19516.411673 0003 0018 29
E: 19516.411675 0000 0000 0
E: 19516.461989 0003 0035 441
E: 19516.461991 0003 0036 204
E: 19516.461992 0003 003a 33
E: 19516.462037 0003 0000 441
E: 19516.462038 0003 0001 204
E: 19516.462040 0003 0018 33
E: 19516.462041 0000 0000 0
E: 19516.472077 0003 003a 34
E: 19516.472103 0003 0018 34
E: 19516.472105 0000 0000 0
E: 19516.482133 0003 0035 440
E: 19516.482135 0003 0036 196
E: 19516.482136 0003 003a 29
E: 19516.482160 0003 0000 440
E: 19516.482161 0003 0001 196
E: 19516.482162 0003 0018 29
E: 19516.482164 0000 0000 0
E: 19516.512361 0003 0035 439
E: 19516.512363 0003 0036 195
E: 19516.512364 0003 003a 30
E: 19516.512387 0003 0000 439
E: 19516.512388 0003 0001 195
E: 19516.512389 0003 0018 30
E: 19516.512391 0000 0000 0
E: 19516.552579 0003 0035 438
E: 19516.552599 0003 0000 438
E: 19516.552601 0000 0000 0
E: 19516.572722 0003 0036 194
E: 19516.572748 0003 0001 194
E: 19516.572751 0000 0000 0
E: 19516.582837 0003 003a 31
E: 19516.582863 0003 0018 31
E: 19516.582865 0000 0000 0
E: 19516.613101 0003 003a 30
E: 19516.613127 0003 0018 30
E: 19516.613129 0000 0000 0
E: 19516.643372 0003 0036 193
E: 19516.643374 0003 003a 31
E: 19516.643392 0003 0001 193
E: 19516.643393 0003 0018 31
E: 19516.643394 0000 0000 0
E: 19516.653471 0003 003a 30
E: 19516.653497 0003 0018 30
E: 19516.653498 0000 0000 0
E: 19516.693912 0003 0035 439
E: 19516.693914 0003 0036 200
E: 19516.693915 0003 003a 33
E: 19516.693939 0003 0000 439
E: 19516.693940 0003 0001 200
E: 19516.693941 0003 0018 33
E: 19516.693942 0000 0000 0
E: 19516.704059 0003 0035 441
E: 19516.704061 0003 0036 201
E: 19516.704062 0003 003a 34
E: 19516.704086 0003 0000 441
E: 19516.704087 0003 0001 201
E: 19516.704088 0003 0018 34
E: 19516.704090 0000 0000 0
E: 19516.774587 0003 003a 35
E: 19516.774613 0003 0018 35
E: 19516.774615 0000 0000 0
E: 19516.794783 0003 003a 34
E: 19516.794809 0003 0018 34
E: 19516.794811 0000 0000 0
E: 19516.825041 0003 0036 202
E: 19516.825067 0003 0001 202
E: 19516.825070 0000 0000 0
E: 19516.855483 0003 0035 439
E: 19516.855485 0003 0036 195
E: 19516.855486 0003 003a 31
E: 19516.855510 0003 0000 439
E: 19516.855511 0003 0001 195
E: 19516.855512 0003 0018 31
E: 19516.855513 0000 0000 0
E: 19516.865502 0003 0035 438
E: 19516.865528 0003 0000 438
E: 19516.865532 0000 0000 0
E: 19516.945850 0003 0036 194
E: 19516.945876 0003 0001 194
E: 19516.945879 0000 0000 0
E: 19516.955914 0003 0036 193
E: 19516.955940 0003 0001 193
E: 19516.955942 0000 0000 0
E: 19516.996250 0003 0035 437
E: 19516.996253 0003 003a 32
E: 19516.996276 0003 0000 437
E: 19516.996278 0003 0018 32
E: 19516.996280 0000 0000 0
E: 19517.016521 0003 003a 31
E: 19517.016547 0003 0018 31
E: 19517.016549 0000 0000 0
E: 19517.056777 0003 0035 440
E: 19517.056779 0003 0036 202
E: 19517.056780 0003 003a 34
E: 19517.056804 0003 0000 440
E: 19517.056805 0003 0001 202
E: 19517.056806 0003 0018 34
E: 19517.056808 0000 0000 0
E: 19517.107154 0003 003a 35
E: 19517.107180 0003 0018 35
E: 19517.107182 0000 0000 0
E: 19517.117211 0003 003a 34
E: 19517.117237 0003 0018 34
E: 19517.117238 0000 0000 0
E: 19517.137430 0003 003a 35
E: 19517.137456 0003 0018 35
E: 19517.137458 0000 0000 0
E: 19517.147503 0003 003a 34
E: 19517.147529 0003 0018 34
E: 19517.147530 0000 0000 0
E: 19517.177777 0003 0035 438
E: 19517.177779 0003 0036 194
E: 19517.177780 0003 003a 31
E: 19517.177804 0003 0000 438
E: 19517.177805 0003 0001 194
E: 19517.177806 0003 0018 31
E: 19517.177808 0000 0000 0
E: 19517.238288 0003 0035 437
E: 19517.238291 0003 003a 32
E: 19517.238315 0003 0000 437
E: 19517.238317 0003 0018 32
E: 19517.238318 0000 0000 0
E: 19517.248364 0003 003a 31
E: 19517.248390 0003 0018 31
E: 19517.248392 0000 0000 0
E: 19517.308801 0003 0035 440
E: 19517.308803 0003 0036 202
E: 19517.308804 0003 003a 35
E: 19517.308829 0003 0000 440
E: 19517.308830 0003 0001 202
E: 19517.308831 0003 0018 35
E: 19517.308833 0000 0000 0
E: 19517.318927 0003 0035 438
E: 19517.318929 0003 0036 195
E: 19517.318930 0003 003a 31
E: 19517.318954 0003 0000 438
E: 19517.318955 0003 0001 195
E: 19517.318956 0003 0018 31
E: 19517.318958 0000 0000 0
E: 19517.328989 0003 0035 437
E: 19517.328990 0003 0036 194
E: 19517.328991 0003 003a 32
E: 19517.329029 0003 0000 437
E: 19517.329030 0003 0001 194
E: 19517.329031 0003 0018 32
E: 19517.329033 0000 0000 0
E: 19517.339089 0003 003a 31
E: 19517.339115 0003 0018 31
E: 19517.339117 0000 0000 0
E: 19517.359204 0003 0036 193
E: 19517.359230 0003 0001 193
E: 19517.359232 0000 0000 0
E: 19517.409554 0003 003a 32
E: 19517.409580 0003 0018 32
E: 19517.409582 0000 0000 0
E: 19517.429761 0003 003a 31
E: 19517.429787 0003 0018 31
E: 19517.429789 0000 0000 0
E: 19517.449901 0003 003a 30
E: 19517.449928 0003 0018 30
E: 19517.449930 0000 0000 0
E: 19517.470128 0003 003a 31
E: 19517.470154 0003 0018 31
E: 19517.470156 0000 0000 0
E: 19517.480194 0003 003a 32
E: 19517.480220 0003 0018 32
E: 19517.480222 0000 0000 0
E: 19517.490258 0003 003a 31
E: 19517.490284 0003 0018 31
E: 19517.490286 0000 0000 0
E: 19517.560888 0003 0035 439
E: 19517.560890 0003 0036 201
E: 19517.560891 0003 003a 34
E: 19517.560915 0003 0000 439
E: 19517.560916 0003 0001 201
E: 19517.560917 0003 0018 34
E: 19517.560918 0000 0000 0
E: 19517.581059 0003 003a 35
E: 19517.581085 0003 0018 35
E: 19517.581086 0000 0000 0
E: 19517.591163 0003 0035 440
E: 19517.591165 0003 0036 203
E: 19517.591190 0003 0000 440
E: 19517.591191 0003 0001 203
E: 19517.591194 0000 0000 0
E: 19517.601245 0003 003a 34
E: 19517.601271 0003 0018 34
E: 19517.601273 0000 0000 0
E: 19517.611354 0003 0036 202
E: 19517.611380 0003 0001 202
E: 19517.611383 0000 0000 0
E: 19517.682041 0003 0036 203
E: 19517.682043 0003 003a 35
E: 19517.682067 0003 0001 203
E: 19517.682068 0003 0018 35
E: 19517.682070 0000 0000 0
E: 19517.732422 0003 0035 441
E: 19517.732448 0003 0000 441
E: 19517.732451 0000 0000 0
E: 19517.742489 0003 003a 36
E: 19517.742515 0003 0018 36
E: 19517.742517 0000 0000 0
E: 19517.782823 0003 003a 35
E: 19517.782849 0003 0018 35
E: 19517.782851 0000 0000 0
E: 19517.813108 0003 0036 204
E: 19517.813110 0003 003a 36
E: 19517.813135 0003 0001 204
E: 19517.813136 0003 0018 36
E: 19517.813138 0000 0000 0
E: 19517.833150 0003 0036 203
E: 19517.833176 0003 0001 203
E: 19517.833179 0000 0000 0
E: 19517.863386 0003 0035 438
E: 19517.863388 0003 0036 193
E: 19517.863389 0003 003a 32
E: 19517.863413 0003 0000 438
E: 19517.863414 0003 0001 193
E: 19517.863415 0003 0018 32
E: 19517.863416 0000 0000 0
E: 19517.873517 0003 0035 437
E: 19517.873520 0003 003a 31
E: 19517.873544 0003 0000 437
E: 19517.873546 0003 0018 31
E: 19517.873548 0000 0000 0
E: 19517.934057 0003 003a 32
E: 19517.934083 0003 0018 32
E: 19517.934085 0000 0000 0
E: 19517.974305 0003 003a 31
E: 19517.974332 0003 0018 31
E: 19517.974334 0000 0000 0
E: 19517.984452 0003 003a 32
E: 19517.984478 0003 0018 32
E: 19517.984480 0000 0000 0
E: 19518.024743 0003 003a 31
E: 19518.024769 0003 0018 31
E: 19518.024770 0000 0000 0
E: 19518.115710 0003 003a 32
E: 19518.115736 0003 0018 32
E: 19518.115737 0000 0000 0
E: 19518.216593 0003 003a 31
E: 19518.216620 0003 0018 31
E: 19518.216622 0000 0000 0
E: 19518.236833 0003 003a 32
E: 19518.236859 0003 0018 32
E: 19518.236861 0000 0000 0
E: 19518.246855 0003 003a 31
E: 19518.246874 0003 0018 31
E: 19518.246875 0000 0000 0
E: 19518.307181 0003 003a 32
E: 19518.307208 0003 0018 32
E: 19518.307209 0000 0000 0
E: 19518.357616 0003 0035 436
E: 19518.357619 0003 003a 33
E: 19518.357643 0003 0000 436
E: 19518.357645 0003 0018 33
E: 19518.357646 0000 0000 0
E: 19518.367732 0003 003a 32
E: 19518.367758 0003 0018 32
E: 19518.367760 0000 0000 0
E: 19518.377832 0003 003a 31
E: 19518.377858 0003 0018 31
E: 19518.377859 0000 0000 0
E: 19518.397930 0003 0036 194
E: 19518.397931 0003 003a 32
E: 19518.397950 0003 0001 194
E: 19518.397950 0003 0018 32
E: 19518.397952 0000 0000 0
E: 19518.408018 0003 003a 31
E: 19518.408045 0003 0018 31
E: 19518.408046 0000 0000 0
E: 19518.418109 0003 003a 32
E: 19518.418135 0003 0018 32
E: 19518.418137 0000 0000 0
E: 19518.438233 0003 003a 33
E: 19518.438260 0003 0018 33
E: 19518.438261 0000 0000 0
E: 19518.448248 0003 0036 193
E: 19518.448250 0003 003a 32
E: 19518.448274 0003 0001 193
E: 19518.448275 0003 0018 32
E: 19518.448276 0000 0000 0
E: 19518.458312 0003 003a 33
E: 19518.458339 0003 0018 33
E: 19518.458340 0000 0000 0
E: 19518.468426 0003 003a 32
E: 19518.468453 0003 0018 32
E: 19518.468454 0000 0000 0
E: 19518.579110 0003 003a 31
E: 19518.579137 0003 0018 31
E: 19518.579138 0000 0000 0
E: 19518.589159 0003 003a 32
E: 19518.589185 0003 0018 32
E: 19518.589187 0000 0000 0
E: 19518.629537 0003 003a 33
E: 19518.629563 0003 0018 33
E: 19518.629565 0000 0000 0
E: 19518.639598 0003 003a 32
E: 19518.639625 0003 0018 32
E: 19518.639626 0000 0000 0
E: 19518.679987 0003 003a 33
E: 19518.680036 0003 0018 33
E: 19518.680038 0000 0000 0
E: 19518.720306 0003 003a 32
E: 19518.720332 0003 0018 32
E: 19518.720333 0000 0000 0
E: 19518.750507 0003 003a 33
E: 19518.750526 0003 0018 33
E: 19518.750527 0000 0000 0
E: 19518.760545 0003 003a 32
E: 19518.760570 0003 0018 32
E: 19518.760572 0000 0000 0
E: 19518.770585 0003 003a 33
E: 19518.770611 0003 0018 33
E: 19518.770613 0000 0000 0
E: 19518.921724 0003 003a 32
E: 19518.921749 0003 0018 32
E: 19518.921751 0000 0000 0
E: 19518.951931 0003 003a 33
E: 19518.951957 0003 0018 33
E: 19518.951958 0000 0000 0
E: 19518.962031 0003 0035 439
E: 19518.962033 0003 0036 203
E: 19518.962034 0003 003a 36
E: 19518.962058 0003 0000 439
E: 19518.962059 0003 0001 203
E: 19518.962060 0003 0018 36
E: 19518.962062 0000 0000 0
E: 19518.982172 0003 0035 440
E: 19518.982198 0003 0000 440
E: 19518.982201 0000 0000 0
E: 19519.012282 0003 0036 204
E: 19519.012308 0003 0001 204
E: 19519.012311 0000 0000 0
E: 19519.022369 0003 0035 438
E: 19519.022371 0003 0036 194
E: 19519.022372 0003 003a 32
E: 19519.022396 0003 0000 438
E: 19519.022397 0003 0001 194
E: 19519.022398 0003 0018 32
E: 19519.022400 0000 0000 0
E: 19519.052504 0003 0035 437
E: 19519.052523 0003 0000 437
E: 19519.052525 0000 0000 0
E: 19519.193612 0003 0035 439
E: 19519.193614 0003 0036 202
E: 19519.193614 0003 003a 36
E: 19519.193632 0003 0000 439
E: 19519.193633 0003 0001 202
E: 19519.193634 0003 0018 36
E: 19519.193635 0000 0000 0
E: 19519.203757 0003 0035 440
E: 19519.203759 0003 0036 203
E: 19519.203783 0003 0000 440
E: 19519.203784 0003 0001 203
E: 19519.203787 0000 0000 0
E: 19519.223842 0003 0035 438
E: 19519.223844 0003 0036 195
E: 19519.223845 0003 003a 32
E: 19519.223869 0003 0000 438
E: 19519.223870 0003 0001 195
E: 19519.223871 0003 0018 32
E: 19519.223873 0000 0000 0
E: 19519.304561 0003 0035 437
E: 19519.304580 0003 0000 437
E: 19519.304582 0000 0000 0
E: 19519.314600 0003 0036 194
E: 19519.314627 0003 0001 194
E: 19519.314629 0000 0000 0
E: 19519.334803 0003 0035 436
E: 19519.334805 0003 003a 33
E: 19519.334829 0003 0000 436
E: 19519.334831 0003 0018 33
E: 19519.334833 0000 0000 0
E: 19519.344878 0003 003a 32
E: 19519.344904 0003 0018 32
E: 19519.344906 0000 0000 0
E: 19519.405613 0003 003a 33
E: 19519.405639 0003 0018 33
E: 19519.405641 0000 0000 0
E: 19519.415697 0003 003a 32
E: 19519.415723 0003 0018 32
E: 19519.415725 0000 0000 0
E: 19519.466121 0003 003a 33
E: 19519.466147 0003 0018 33
E: 19519.466149 0000 0000 0
E: 19519.486252 0003 003a 32
E: 19519.486277 0003 0018 32
E: 19519.486279 0000 0000 0
E: 19519.516539 0003 0035 440
E: 19519.516541 0003 0036 203
E: 19519.516542 0003 003a 36
E: 19519.516566 0003 0000 440
E: 19519.516567 0003 0001 203
E: 19519.516568 0003 0018 36
E: 19519.516570 0000 0000 0
E: 19519.526620 0003 0035 437
E: 19519.526622 0003 0036 194
E: 19519.526623 0003 003a 32
E: 19519.526646 0003 0000 437
E: 19519.526647 0003 0001 194
E: 19519.526648 0003 0018 32
E: 19519.526650 0000 0000 0
E: 19519.617499 0003 003a 33
E: 19519.617525 0003 0018 33
E: 19519.617527 0000 0000 0
E: 19519.627584 0003 003a 32
E: 19519.627610 0003 0018 32
E: 19519.627612 0000 0000 0
E: 19519.637717 0003 0035 436
E: 19519.637743 0003 0000 436
E: 19519.637746 0000 0000 0
E: 19519.647850 0003 0035 439
E: 19519.647852 0003 0036 202
E: 19519.647852 0003 003a 35
E: 19519.647870 0003 0000 439
E: 19519.647870 0003 0001 202
E: 19519.647871 0003 0018 35
E: 19519.647873 0000 0000 0
E: 19519.688206 0003 0036 203
E: 19519.688232 0003 0001 203
E: 19519.688234 0000 0000 0
E: 19519.698285 0003 0035 440
E: 19519.698311 0003 0000 440
E: 19519.698314 0000 0000 0
E: 19519.708371 0003 0036 204
E: 19519.708397 0003 0001 204
E: 19519.708400 0000 0000 0
E: 19519.718481 0003 0035 436
E: 19519.718483 0003 0036 195
E: 19519.718484 0003 003a 32
E: 19519.718508 0003 0000 436
E: 19519.718509 0003 0001 195
E: 19519.718510 0003 0018 32
E: 19519.718512 0000 0000 0
E: 19519.808931 0003 0035 440
E: 19519.808933 0003 0036 202
E: 19519.808934 0003 003a 36
E: 19519.808958 0003 0000 440
E: 19519.808959 0003 0001 202
E: 19519.808960 0003 0018 36
E: 19519.808961 0000 0000 0
E: 19519.828974 0003 0035 438
E: 19519.828976 0003 0036 195
E: 19519.828977 0003 003a 32
E: 19519.829000 0003 0000 438
E: 19519.829017 0003 0001 195
E: 19519.829018 0003 0018 32
E: 19519.829020 0000 0000 0
E: 19519.859188 0003 0035 440
E: 19519.859190 0003 0036 203
E: 19519.859191 0003 003a 36
E: 19519.859215 0003 0000 440
E: 19519.859216 0003 0001 203
E: 19519.859217 0003 0018 36
E: 19519.859219 0000 0000 0
E: 19519.899536 0003 0035 438
E: 19519.899538 0003 0036 194
E: 19519.899539 0003 003a 32
E: 19519.899563 0003 0000 438
E: 19519.899564 0003 0001 194
E: 19519.899565 0003 0018 32
E: 19519.899567 0000 0000 0
E: 19519.960041 0003 0035 437
E: 19519.960068 0003 0000 437
E: 19519.960071 0000 0000 0
E: 19520.040512 0003 003a 33
E: 19520.040539 0003 0018 33
E: 19520.040541 0000 0000 0
E: 19520.111174 0003 0035 436
E: 19520.111200 0003 0000 436
E: 19520.111203 0000 0000 0
E: 19520.151606 0003 003a 32
E: 19520.151632 0003 0018 32
E: 19520.151634 0000 0000 0
E: 19520.161681 0003 003a 33
E: 19520.161707 0003 0018 33
E: 19520.161709 0000 0000 0
E: 19520.171810 0003 003a 32
E: 19520.171836 0003 0018 32
E: 19520.171837 0000 0000 0
E: 19520.202025 0003 0035 439
E: 19520.202026 0003 0036 203
E: 19520.202027 0003 003a 35
E: 19520.202044 0003 0000 439
E: 19520.202045 0003 0001 203
E: 19520.202046 0003 0018 35
E: 19520.202047 0000 0000 0
E: 19520.242392 0003 0035 440
E: 19520.242394 0003 0036 204
E: 19520.242394 0003 003a 36
E: 19520.242412 0003 0000 440
E: 19520.242413 0003 0001 204
E: 19520.242413 0003 0018 36
E: 19520.242415 0000 0000 0
E: 19520.282662 0003 003a 35
E: 19520.282688 0003 0018 35
E: 19520.282690 0000 0000 0
E: 19520.292780 0003 0035 437
E: 19520.292782 0003 0036 195
E: 19520.292783 0003 003a 32
E: 19520.292807 0003 0000 437
E: 19520.292808 0003 0001 195
E: 19520.292809 0003 0018 32
E: 19520.292811 0000 0000 0
E: 19520.312899 0003 0036 194
E: 19520.312925 0003 0001 194
E: 19520.312927 0000 0000 0
E: 19520.322974 0003 003a 33
E: 19520.323000 0003 0018 33
E: 19520.323021 0000 0000 0
E: 19520.333080 0003 003a 32
E: 19520.333106 0003 0018 32
E: 19520.333108 0000 0000 0
E: 19520.434054 0003 0035 436
E: 19520.434057 0003 003a 33
E: 19520.434080 0003 0000 436
E: 19520.434082 0003 0018 33
E: 19520.434084 0000 0000 0
E: 19520.444137 0003 003a 32
E: 19520.444163 0003 0018 32
E: 19520.444165 0000 0000 0
E: 19520.474511 0003 003a 33
E: 19520.474537 0003 0018 33
E: 19520.474539 0000 0000 0
E: 19520.484618 0003 003a 32
E: 19520.484644 0003 0018 32
E: 19520.484646 0000 0000 0
E: 19520.514681 0003 0035 439
E: 19520.514682 0003 0036 203
E: 19520.514683 0003 003a 36
E: 19520.514707 0003 0000 439
E: 19520.514708 0003 0001 203
E: 19520.514709 0003 0018 36
E: 19520.514711 0000 0000 0
E: 19520.534917 0003 0035 437
E: 19520.534919 0003 0036 194
E: 19520.534920 0003 003a 32
E: 19520.534944 0003 0000 437
E: 19520.534945 0003 0001 194
E: 19520.534946 0003 0018 32
E: 19520.534947 0000 0000 0
E: 19520.575160 0003 0035 438
E: 19520.575162 0003 0036 203
E: 19520.575163 0003 003a 36
E: 19520.575187 0003 0000 438
E: 19520.575188 0003 0001 203
E: 19520.575189 0003 0018 36
E: 19520.575191 0000 0000 0
E: 19520.585259 0003 003a 37
E: 19520.585286 0003 0018 37
E: 19520.585287 0000 0000 0
E: 19520.595370 0003 0035 439
E: 19520.595396 0003 0000 439
E: 19520.595399 0000 0000 0
E: 19520.625516 0003 0036 204
E: 19520.625518 0003 003a 36
E: 19520.625543 0003 0001 204
E: 19520.625544 0003 0018 36
E: 19520.625546 0000 0000 0
E: 19520.635700 0003 003a 37
E: 19520.635726 0003 0018 37
E: 19520.635727 0000 0000 0
E: 19520.655886 0003 0035 440
E: 19520.655912 0003 0000 440
E: 19520.655915 0000 0000 0
E: 19520.706328 0003 0035 438
E: 19520.706329 0003 0036 194
E: 19520.706330 0003 003a 32
E: 19520.706355 0003 0000 438
E: 19520.706356 0003 0001 194
E: 19520.706357 0003 0018 32
E: 19520.706358 0000 0000 0
E: 19520.716453 0003 0035 437
E: 19520.716456 0003 003a 33
E: 19520.716480 0003 0000 437
E: 19520.716482 0003 0018 33
E: 19520.716483 0000 0000 0
E: 19520.736638 0003 0035 440
E: 19520.736640 0003 0036 202
E: 19520.736641 0003 003a 36
E: 19520.736665 0003 0000 440
E: 19520.736666 0003 0001 202
E: 19520.736667 0003 0018 36
E: 19520.736669 0000 0000 0
E: 19520.746735 0003 0036 203
E: 19520.746761 0003 0001 203
E: 19520.746763 0000 0000 0
E: 19520.817215 0003 0035 437
E: 19520.817217 0003 0036 194
E: 19520.817218 0003 003a 33
E: 19520.817242 0003 0000 437
E: 19520.817243 0003 0001 194
E: 19520.817244 0003 0018 33
E: 19520.817246 0000 0000 0
E: 19520.827288 0003 0036 199
E: 19520.827290 0003 003a 48
E: 19520.827314 0003 0001 199
E: 19520.827315 0003 0018 48
E: 19520.827317 0000 0000 0
E: 19520.837385 0003 0036 195
E: 19520.837387 0003 003a 32
E: 19520.837411 0003 0001 195
E: 19520.837412 0003 0018 32
E: 19520.837414 0000 0000 0
E: 19520.857583 0003 0036 194
E: 19520.857585 0003 003a 33
E: 19520.857610 0003 0001 194
E: 19520.857611 0003 0018 33
E: 19520.857613 0000 0000 0
E: 19520.867718 0003 003a 32
E: 19520.867744 0003 0018 32
E: 19520.867746 0000 0000 0
E: 19520.887904 0003 0035 439
E: 19520.887906 0003 0036 203
E: 19520.887907 0003 003a 36
E: 19520.887931 0003 0000 439
E: 19520.887932 0003 0001 203
E: 19520.887933 0003 0018 36
E: 19520.887934 0000 0000 0
E: 19520.908077 0003 0035 437
E: 19520.908079 0003 0036 195
E: 19520.908080 0003 003a 32
E: 19520.908105 0003 0000 437
E: 19520.908106 0003 0001 195
E: 19520.908107 0003 0018 32
E: 19520.908108 0000 0000 0
E: 19520.918188 0003 0036 194
E: 19520.918189 0003 003a 33
E: 19520.918214 0003 0001 194
E: 19520.918215 0003 0018 33
E: 19520.918217 0000 0000 0
E: 19520.938370 0003 003a 32
E: 19520.938395 0003 0018 32
E: 19520.938397 0000 0000 0
E: 19521.029093 0003 003a 31
E: 19521.029119 0003 0018 31
E: 19521.029121 0000 0000 0
E: 19521.039190 0003 003a 32
E: 19521.039217 0003 0018 32
E: 19521.039218 0000 0000 0
E: 19521.089537 0003 003a 33
E: 19521.089564 0003 0018 33
E: 19521.089565 0000 0000 0
E: 19521.099643 0003 0035 439
E: 19521.099645 0003 0036 202
E: 19521.099646 0003 003a 36
E: 19521.099663 0003 0000 439
E: 19521.099664 0003 0001 202
E: 19521.099665 0003 0018 36
E: 19521.099666 0000 0000 0
E: 19521.109713 0003 0036 203
E: 19521.109740 0003 0001 203
E: 19521.109742 0000 0000 0
E: 19521.119826 0003 003a 37
E: 19521.119852 0003 0018 37
E: 19521.119853 0000 0000 0
E: 19521.129889 0003 003a 36
E: 19521.129914 0003 0018 36
E: 19521.129916 0000 0000 0
E: 19521.139943 0003 0036 204
E: 19521.139969 0003 0001 204
E: 19521.139972 0000 0000 0
E: 19521.160133 0003 003a 37
E: 19521.160158 0003 0018 37
E: 19521.160160 0000 0000 0
E: 19521.170246 0003 0035 436
E: 19521.170248 0003 0036 194
E: 19521.170249 0003 003a 33
E: 19521.170273 0003 0000 436
E: 19521.170274 0003 0001 194
E: 19521.170275 0003 0018 33
E: 19521.170277 0000 0000 0
E: 19521.180327 0003 003a 34
E: 19521.180353 0003 0018 34
E: 19521.180355 0000 0000 0
E: 19521.200602 0003 003a 33
E: 19521.200628 0003 0018 33
E: 19521.200629 0000 0000 0
E: 19521.261135 0003 003a 32
E: 19521.261161 0003 0018 32
E: 19521.261163 0000 0000 0
E: 19521.301448 0003 003a 33
E: 19521.301474 0003 0018 33
E: 19521.301476 0000 0000 0
E: 19521.331661 0003 003a 32
E: 19521.331687 0003 0018 32
E: 19521.331689 0000 0000 0
E: 19521.382098 0003 003a 33
E: 19521.382124 0003 0018 33
E: 19521.382126 0000 0000 0
E: 19521.402196 0003 003a 32
E: 19521.402222 0003 0018 32
E: 19521.402223 0000 0000 0
E: 19521.412282 0003 003a 33
E: 19521.412308 0003 0018 33
E: 19521.412310 0000 0000 0
E: 19521.432461 0003 003a 32
E: 19521.432488 0003 0018 32
E: 19521.432489 0000 0000 0
E: 19521.452607 0003 0035 440
E: 19521.452609 0003 0036 203
E: 19521.452610 0003 003a 36
E: 19521.452634 0003 0000 440
E: 19521.452635 0003 0001 203
E: 19521.452636 0003 0018 36
E: 19521.452638 0000 0000 0
E: 19521.462691 0003 0035 437
E: 19521.462693 0003 0036 195
E: 19521.462694 0003 003a 32
E: 19521.462718 0003 0000 437
E: 19521.462719 0003 0001 195
E: 19521.462720 0003 0018 32
E: 19521.462722 0000 0000 0
E: 19521.492989 0003 0036 200
E: 19521.492990 0003 003a 50
E: 19521.493017 0003 0001 200
E: 19521.493018 0003 0018 50
E: 19521.493019 0000 0000 0
E: 19521.513148 0003 003a 49
E: 19521.513174 0003 0018 49
E: 19521.513175 0000 0000 0
E: 19521.603815 0003 0035 436
E: 19521.603817 0003 0036 195
E: 19521.603818 0003 003a 33
E: 19521.603842 0003 0000 436
E: 19521.603843 0003 0001 195
E: 19521.603844 0003 0018 33
E: 19521.603846 0000 0000 0
E: 19521.633963 0003 003a 32
E: 19521.633989 0003 0018 32
E: 19521.633991 0000 0000 0
E: 19521.674381 0003 003a 33
E: 19521.674408 0003 0018 33
E: 19521.674410 0000 0000 0
E: 19521.684478 0003 0035 439
E: 19521.684480 0003 0036 204
E: 19521.684481 0003 003a 37
E: 19521.684505 0003 0000 439
E: 19521.684506 0003 0001 204
E: 19521.684507 0003 0018 37
E: 19521.684509 0000 0000 0
E: 19521.704587 0003 003a 36
E: 19521.704606 0003 0018 36
E: 19521.704607 0000 0000 0
E: 19521.734822 0003 0035 440
E: 19521.734849 0003 0000 440
E: 19521.734852 0000 0000 0
E: 19521.755090 0003 003a 35
E: 19521.755116 0003 0018 35
E: 19521.755118 0000 0000 0
E: 19521.775231 0003 0035 437
E: 19521.775233 0003 0036 195
E: 19521.775234 0003 003a 33
E: 19521.775258 0003 0000 437
E: 19521.775259 0003 0001 195
E: 19521.775260 0003 0018 33
E: 19521.775262 0000 0000 0
E: 19521.805626 0003 0035 439
E: 19521.805628 0003 0036 204
E: 19521.805629 0003 003a 34
E: 19521.805653 0003 0000 439
E: 19521.805654 0003 0001 204
E: 19521.805655 0003 0018 34
E: 19521.805657 0000 0000 0
E: 19521.815777 0003 003a 35
E: 19521.815803 0003 0018 35
E: 19521.815805 0000 0000 0
E: 19521.825835 0003 003a 37
E: 19521.825861 0003 0018 37
E: 19521.825863 0000 0000 0
E: 19521.835955 0003 003a 36
E: 19521.835981 0003 0018 36
E: 19521.835982 0000 0000 0
E: 19521.967100 0003 0035 436
E: 19521.967102 0003 0036 195
E: 19521.967103 0003 003a 33
E: 19521.967128 0003 0000 436
E: 19521.967129 0003 0001 195
E: 19521.967130 0003 0018 33
E: 19521.967131 0000 0000 0
E: 19521.977187 0003 0036 199
E: 19521.977189 0003 003a 49
E: 19521.977215 0003 0001 199
E: 19521.977216 0003 0018 49
E: 19521.977217 0000 0000 0
E: 19522.017557 0003 0035 438
E: 19522.017559 0003 0036 204
E: 19522.017560 0003 003a 36
E: 19522.017584 0003 0000 438
E: 19522.017585 0003 0001 204
E: 19522.017586 0003 0018 36
E: 19522.017588 0000 0000 0
E: 19522.027626 0003 0035 436
E: 19522.027627 0003 0036 195
E: 19522.027628 0003 003a 33
E: 19522.027652 0003 0000 436
E: 19522.027653 0003 0001 195
E: 19522.027654 0003 0018 33
E: 19522.027655 0000 0000 0
E: 19522.037703 0003 003a 32
E: 19522.037729 0003 0018 32
E: 19522.037731 0000 0000 0
E: 19522.047819 0003 003a 33
E: 19522.047845 0003 0018 33
E: 19522.047847 0000 0000 0
E: 19522.068221 0003 0035 439
E: 19522.068222 0003 0036 204
E: 19522.068223 0003 003a 36
E: 19522.068247 0003 0000 439
E: 19522.068248 0003 0001 204
E: 19522.068249 0003 0018 36
E: 19522.068251 0000 0000 0
E: 19522.088407 0003 0035 437
E: 19522.088409 0003 0036 196
E: 19522.088410 0003 003a 32
E: 19522.088434 0003 0000 437
E: 19522.088435 0003 0001 196
E: 19522.088436 0003 0018 32
E: 19522.088438 0000 0000 0
E: 19522.118646 0003 003a 31
E: 19522.118672 0003 0018 31
E: 19522.118674 0000 0000 0
E: 19522.128781 0003 003a 32
E: 19522.128807 0003 0018 32
E: 19522.128808 0000 0000 0
E: 19522.179124 0003 0035 436
E: 19522.179127 0003 003a 33
E: 19522.179150 0003 0000 436
E: 19522.179152 0003 0018 33
E: 19522.179153 0000 0000 0
E: 19522.189187 0003 0036 195
E: 19522.189213 0003 0001 195
E: 19522.189215 0000 0000 0
E: 19522.209371 0003 003a 32
E: 19522.209397 0003 0018 32
E: 19522.209399 0000 0000 0
E: 19522.219482 0003 003a 33
E: 19522.219508 0003 0018 33
E: 19522.219510 0000 0000 0
E: 19522.249569 0003 003a 32
E: 19522.249595 0003 0018 32
E: 19522.249597 0000 0000 0
E: 19522.269803 0003 003a 30
E: 19522.269829 0003 0018 30
E: 19522.269831 0000 0000 0
E: 19522.279870 0003 0035 439
E: 19522.279872 0003 0036 199
E: 19522.279873 0003 003a 26
E: 19522.279897 0003 0000 439
E: 19522.279898 0003 0001 199
E: 19522.279899 0003 0018 26
E: 19522.279901 0000 0000 0
E: 19522.289913 0003 0035 442
E: 19522.289914 0003 0036 205
E: 19522.289915 0003 003a 11
E: 19522.289940 0003 0000 442
E: 19522.289941 0003 0001 205
E: 19522.289942 0003 0018 11
E: 19522.289943 0000 0000 0
E: 19522.296651 0003 0039 -1
E: 19522.296674 0001 014a 0
E: 19522.296674 0001 0145 0
E: 19522.296676 0003 0018 0
E: 19522.296677 0000 0000 0
E: 19522.297177 0003 002f 0
E: 19522.297177 0003 0039 -1
E: 19522.297177 0003 002f 1
E: 19522.297177 0003 0039 -1
E: 19522.297177 0003 002f 2
E: 19522.297177 0003 0039 -1
E: 19522.297177 0003 002f 3
E: 19522.297177 0003 0039 -1
E: 19522.297177 0003 002f 4
E: 19522.297177 0003 0039 -1
E: 19522.297177 0003 002f 5
E: 19522.297177 0003 0039 -1
E: 19522.297177 0003 002f 6
E: 19522.297177 0003 0039 -1
E: 19522.297177 0003 002f 7
E: 19522.297177 0003 0039 -1
E: 19522.297177 0003 002f 8
E: 19522.297177 0003 0039 -1
E: 19522.297177 0003 002f 9
E: 19522.297177 0003 0039 -1
E: 19522.297177 0003 002f 10
E: 19522.297177 0003 0039 -1
E: 19522.297177 0003 002f 11
E: 19522.297177 0003 0039 -1
E: 19522.297177 0003 002f 12
E: 19522.297177 0003 0039 -1
E: 19522.297177 0003 002f 13
E: 19522.297177 0003 0039 -1
E: 19522.297177 0003 002f 14
E: 19522.297177 0003 0039 -1
