ccopy_reg
_reconstructor
p1
(coptofidelity.detection.trace
Trace
p2
c__builtin__
list
p3
(lp4
g1
(coptofidelity.detection.events
FingerEvent
p5
c__builtin__
object
p6
NtRp7
(dp8
S'start_time'
p9
NsS'state'
p10
NsS'location'
p11
F19
sS'time'
p12
I0
sbag1
(g5
g6
NtRp13
(dp14
g9
Nsg10
Nsg11
F18.5
sg12
I1
sbag1
(g5
g6
NtRp15
(dp16
g9
Nsg10
Nsg11
F19
sg12
I2
sbag1
(g5
g6
NtRp17
(dp18
g9
Nsg10
Nsg11
F18.5
sg12
I8
sbag1
(g5
g6
NtRp19
(dp20
g9
Nsg10
Nsg11
F19
sg12
I9
sbag1
(g5
g6
NtRp21
(dp22
g9
Nsg10
Nsg11
F18.5
sg12
I38
sbag1
(g5
g6
NtRp23
(dp24
g9
Nsg10
Nsg11
F19
sg12
I96
sbag1
(g5
g6
NtRp25
(dp26
g9
Nsg10
Nsg11
F18.5
sg12
I120
sbag1
(g5
g6
NtRp27
(dp28
g9
Nsg10
Nsg11
F19
sg12
I141
sbag1
(g5
g6
NtRp29
(dp30
g9
Nsg10
Nsg11
F18.5
sg12
I143
sbag1
(g5
g6
NtRp31
(dp32
g9
Nsg10
Nsg11
F19
sg12
I144
sbag1
(g5
g6
NtRp33
(dp34
g9
Nsg10
Nsg11
F18.5
sg12
I146
sbag1
(g5
g6
NtRp35
(dp36
g9
Nsg10
Nsg11
F19
sg12
I147
sbag1
(g5
g6
NtRp37
(dp38
g9
Nsg10
Nsg11
F19.5
sg12
I149
sbag1
(g5
g6
NtRp39
(dp40
g9
Nsg10
Nsg11
F19
sg12
I150
sbag1
(g5
g6
NtRp41
(dp42
g9
Nsg10
Nsg11
F18.5
sg12
I151
sbag1
(g5
g6
NtRp43
(dp44
g9
Nsg10
Nsg11
F19
sg12
I152
sbag1
(g5
g6
NtRp45
(dp46
g9
Nsg10
Nsg11
F19.5
sg12
I153
sbag1
(g5
g6
NtRp47
(dp48
g9
Nsg10
Nsg11
F19
sg12
I154
sbag1
(g5
g6
NtRp49
(dp50
g9
Nsg10
Nsg11
F19.5
sg12
I155
sbag1
(g5
g6
NtRp51
(dp52
g9
Nsg10
Nsg11
F20
sg12
I157
sbag1
(g5
g6
NtRp53
(dp54
g9
Nsg10
Nsg11
F21
sg12
I160
sbag1
(g5
g6
NtRp55
(dp56
g9
Nsg10
Nsg11
F21.5
sg12
I161
sbag1
(g5
g6
NtRp57
(dp58
g9
Nsg10
Nsg11
F21
sg12
I162
sbag1
(g5
g6
NtRp59
(dp60
g9
Nsg10
Nsg11
F21.5
sg12
I165
sbag1
(g5
g6
NtRp61
(dp62
g9
Nsg10
Nsg11
F22
sg12
I166
sbag1
(g5
g6
NtRp63
(dp64
g9
Nsg10
Nsg11
F22.5
sg12
I168
sbag1
(g5
g6
NtRp65
(dp66
g9
Nsg10
Nsg11
F23
sg12
I169
sbag1
(g5
g6
NtRp67
(dp68
g9
Nsg10
Nsg11
F22.5
sg12
I172
sbag1
(g5
g6
NtRp69
(dp70
g9
Nsg10
Nsg11
F23
sg12
I173
sbag1
(g5
g6
NtRp71
(dp72
g9
Nsg10
Nsg11
F23.5
sg12
I175
sbag1
(g5
g6
NtRp73
(dp74
g9
Nsg10
Nsg11
F24
sg12
I189
sbag1
(g5
g6
NtRp75
(dp76
g9
Nsg10
Nsg11
F23.5
sg12
I191
sbag1
(g5
g6
NtRp77
(dp78
g9
Nsg10
Nsg11
F24
sg12
I192
sbag1
(g5
g6
NtRp79
(dp80
g9
Nsg10
Nsg11
F23.5
sg12
I194
sbag1
(g5
g6
NtRp81
(dp82
g9
Nsg10
Nsg11
F24
sg12
I228
sbag1
(g5
g6
NtRp83
(dp84
g9
Nsg10
Nsg11
F23.5
sg12
I251
sbag1
(g5
g6
NtRp85
(dp86
g9
Nsg10
Nsg11
F24
sg12
I288
sbag1
(g5
g6
NtRp87
(dp88
g9
Nsg10
Nsg11
F23.5
sg12
I300
sbag1
(g5
g6
NtRp89
(dp90
g9
Nsg10
Nsg11
F24
sg12
I304
sbag1
(g5
g6
NtRp91
(dp92
g9
Nsg10
Nsg11
F23.5
sg12
I313
sbag1
(g5
g6
NtRp93
(dp94
g9
Nsg10
Nsg11
F24
sg12
I348
sbag1
(g5
g6
NtRp95
(dp96
g9
Nsg10
Nsg11
F23.5
sg12
I353
sbag1
(g5
g6
NtRp97
(dp98
g9
Nsg10
Nsg11
F24
sg12
I367
sbag1
(g5
g6
NtRp99
(dp100
g9
Nsg10
Nsg11
F24.5
sg12
I369
sbag1
(g5
g6
NtRp101
(dp102
g9
Nsg10
Nsg11
F25
sg12
I370
sbag1
(g5
g6
NtRp103
(dp104
g9
Nsg10
Nsg11
F26
sg12
I371
sbag1
(g5
g6
NtRp105
(dp106
g9
Nsg10
Nsg11
F27
sg12
I373
sbag1
(g5
g6
NtRp107
(dp108
g9
Nsg10
Nsg11
F28
sg12
I374
sbag1
(g5
g6
NtRp109
(dp110
g9
Nsg10
Nsg11
F28.5
sg12
I375
sbag1
(g5
g6
NtRp111
(dp112
g9
Nsg10
Nsg11
F29.5
sg12
I376
sbag1
(g5
g6
NtRp113
(dp114
g9
Nsg10
Nsg11
F31
sg12
I377
sbag1
(g5
g6
NtRp115
(dp116
g9
Nsg10
Nsg11
F32
sg12
I378
sbag1
(g5
g6
NtRp117
(dp118
g9
Nsg10
Nsg11
F33
sg12
I379
sbag1
(g5
g6
NtRp119
(dp120
g9
Nsg10
Nsg11
F34
sg12
I380
sbag1
(g5
g6
NtRp121
(dp122
g9
Nsg10
Nsg11
F35
sg12
I381
sbag1
(g5
g6
NtRp123
(dp124
g9
Nsg10
Nsg11
F37
sg12
I382
sbag1
(g5
g6
NtRp125
(dp126
g9
Nsg10
Nsg11
F38
sg12
I383
sbag1
(g5
g6
NtRp127
(dp128
g9
Nsg10
Nsg11
F39.5
sg12
I384
sbag1
(g5
g6
NtRp129
(dp130
g9
Nsg10
Nsg11
F40.5
sg12
I385
sbag1
(g5
g6
NtRp131
(dp132
g9
Nsg10
Nsg11
F42
sg12
I386
sbag1
(g5
g6
NtRp133
(dp134
g9
Nsg10
Nsg11
F44
sg12
I387
sbag1
(g5
g6
NtRp135
(dp136
g9
Nsg10
Nsg11
F46
sg12
I388
sbag1
(g5
g6
NtRp137
(dp138
g9
Nsg10
Nsg11
F47.5
sg12
I389
sbag1
(g5
g6
NtRp139
(dp140
g9
Nsg10
Nsg11
F49.5
sg12
I390
sbag1
(g5
g6
NtRp141
(dp142
g9
Nsg10
Nsg11
F51.5
sg12
I391
sbag1
(g5
g6
NtRp143
(dp144
g9
Nsg10
Nsg11
F53
sg12
I392
sbag1
(g5
g6
NtRp145
(dp146
g9
Nsg10
Nsg11
F54.5
sg12
I393
sbag1
(g5
g6
NtRp147
(dp148
g9
Nsg10
Nsg11
F56.5
sg12
I394
sbag1
(g5
g6
NtRp149
(dp150
g9
Nsg10
Nsg11
F57.5
sg12
I395
sbag1
(g5
g6
NtRp151
(dp152
g9
Nsg10
Nsg11
F59
sg12
I396
sbag1
(g5
g6
NtRp153
(dp154
g9
Nsg10
Nsg11
F60.5
sg12
I397
sbag1
(g5
g6
NtRp155
(dp156
g9
Nsg10
Nsg11
F61
sg12
I398
sbag1
(g5
g6
NtRp157
(dp158
g9
Nsg10
Nsg11
F62.5
sg12
I399
sbag1
(g5
g6
NtRp159
(dp160
g9
Nsg10
Nsg11
F63.5
sg12
I400
sbag1
(g5
g6
NtRp161
(dp162
g9
Nsg10
Nsg11
F64
sg12
I401
sbag1
(g5
g6
NtRp163
(dp164
g9
Nsg10
Nsg11
F65.5
sg12
I402
sbag1
(g5
g6
NtRp165
(dp166
g9
Nsg10
Nsg11
F66
sg12
I403
sbag1
(g5
g6
NtRp167
(dp168
g9
Nsg10
Nsg11
F67
sg12
I404
sbag1
(g5
g6
NtRp169
(dp170
g9
Nsg10
Nsg11
F67.5
sg12
I405
sbag1
(g5
g6
NtRp171
(dp172
g9
Nsg10
Nsg11
F68.5
sg12
I406
sbag1
(g5
g6
NtRp173
(dp174
g9
Nsg10
Nsg11
F69
sg12
I408
sbag1
(coptofidelity.detection.events
LineDrawEvent
p175
g6
NtRp176
(dp177
g9
I406
sg10
Nsg11
F34
sg12
I409
sbag1
(g5
g6
NtRp178
(dp179
g9
Nsg10
Nsg11
F69.5
sg12
I409
sbag1
(g5
g6
NtRp180
(dp181
g9
Nsg10
Nsg11
F70.5
sg12
I411
sbag1
(g175
g6
NtRp182
(dp183
g9
I411
sg10
Nsg11
F40
sg12
I414
sbag1
(g5
g6
NtRp184
(dp185
g9
Nsg10
Nsg11
F71
sg12
I415
sbag1
(g175
g6
NtRp186
(dp187
g9
I416
sg10
Nsg11
F48
sg12
I419
sbag1
(g5
g6
NtRp188
(dp189
g9
Nsg10
Nsg11
F70.5
sg12
I420
sbag1
(g175
g6
NtRp190
(dp191
g9
I421
sg10
Nsg11
F55
sg12
I424
sbag1
(g5
g6
NtRp192
(dp193
g9
Nsg10
Nsg11
F70
sg12
I427
sbag1
(g175
g6
NtRp194
(dp195
g9
I426
sg10
Nsg11
F60
sg12
I429
sbag1
(g5
g6
NtRp196
(dp197
g9
Nsg10
Nsg11
F70.5
sg12
I429
sbag1
(g5
g6
NtRp198
(dp199
g9
Nsg10
Nsg11
F70
sg12
I430
sbag1
(g5
g6
NtRp200
(dp201
g9
Nsg10
Nsg11
F69.5
sg12
I432
sbag1
(g175
g6
NtRp202
(dp203
g9
I435
sg10
Nsg11
F65
sg12
I437
sbag1
(g5
g6
NtRp204
(dp205
g9
Nsg10
Nsg11
F70
sg12
I456
sbag1
(g175
g6
NtRp206
(dp207
g9
I446
sg10
Nsg11
F69
sg12
I457
sbag1
(g5
g6
NtRp208
(dp209
g9
Nsg10
Nsg11
F70.5
sg12
I461
sbag1
(g5
g6
NtRp210
(dp211
g9
Nsg10
Nsg11
F70
sg12
I464
sbag1
(g5
g6
NtRp212
(dp213
g9
Nsg10
Nsg11
F71
sg12
I465
sbag1
(g5
g6
NtRp214
(dp215
g9
Nsg10
Nsg11
F70.5
sg12
I468
sbag1
(g5
g6
NtRp216
(dp217
g9
Nsg10
Nsg11
F70
sg12
I480
sbag1
(g5
g6
NtRp218
(dp219
g9
Nsg10
Nsg11
F69.5
sg12
I492
sbag1
(g5
g6
NtRp220
(dp221
g9
Nsg10
Nsg11
F70
sg12
I504
sbag1
(g5
g6
NtRp222
(dp223
g9
Nsg10
Nsg11
F70.5
sg12
I507
sbag1
(g5
g6
NtRp224
(dp225
g9
Nsg10
Nsg11
F70
sg12
I510
sbag1
(g5
g6
NtRp226
(dp227
g9
Nsg10
Nsg11
F70.5
sg12
I526
sbag1
(g5
g6
NtRp228
(dp229
g9
Nsg10
Nsg11
F70
sg12
I532
sbag1
(g5
g6
NtRp230
(dp231
g9
Nsg10
Nsg11
F69.5
sg12
I540
sbag1
(g5
g6
NtRp232
(dp233
g9
Nsg10
Nsg11
F70
sg12
I552
sbag1
(g5
g6
NtRp234
(dp235
g9
Nsg10
Nsg11
F70.5
sg12
I564
sbag1
(g5
g6
NtRp236
(dp237
g9
Nsg10
Nsg11
F70
sg12
I586
sbag1
(g5
g6
NtRp238
(dp239
g9
Nsg10
Nsg11
F71
sg12
I589
sbag1
(g5
g6
NtRp240
(dp241
g9
Nsg10
Nsg11
F71.5
sg12
I590
sbag1
(g5
g6
NtRp242
(dp243
g9
Nsg10
Nsg11
F72
sg12
I591
sbag1
(g5
g6
NtRp244
(dp245
g9
Nsg10
Nsg11
F73.5
sg12
I592
sbag1
(g5
g6
NtRp246
(dp247
g9
Nsg10
Nsg11
F74.5
sg12
I593
sbag1
(g5
g6
NtRp248
(dp249
g9
Nsg10
Nsg11
F76
sg12
I594
sbag1
(g5
g6
NtRp250
(dp251
g9
Nsg10
Nsg11
F77
sg12
I595
sbag1
(g5
g6
NtRp252
(dp253
g9
Nsg10
Nsg11
F78.5
sg12
I596
sbag1
(g5
g6
NtRp254
(dp255
g9
Nsg10
Nsg11
F80
sg12
I597
sbag1
(g5
g6
NtRp256
(dp257
g9
Nsg10
Nsg11
F81.5
sg12
I598
sbag1
(g5
g6
NtRp258
(dp259
g9
Nsg10
Nsg11
F83.5
sg12
I599
sbag1
(g5
g6
NtRp260
(dp261
g9
Nsg10
Nsg11
F85
sg12
I600
sbag1
(g5
g6
NtRp262
(dp263
g9
Nsg10
Nsg11
F86
sg12
I601
sbag1
(g5
g6
NtRp264
(dp265
g9
Nsg10
Nsg11
F88
sg12
I602
sbag1
(g5
g6
NtRp266
(dp267
g9
Nsg10
Nsg11
F91
sg12
I603
sbag1
(g5
g6
NtRp268
(dp269
g9
Nsg10
Nsg11
F94.5
sg12
I604
sbag1
(g5
g6
NtRp270
(dp271
g9
Nsg10
Nsg11
F97
sg12
I605
sbag1
(g5
g6
NtRp272
(dp273
g9
Nsg10
Nsg11
F99
sg12
I606
sbag1
(g5
g6
NtRp274
(dp275
g9
Nsg10
Nsg11
F101.5
sg12
I607
sbag1
(g5
g6
NtRp276
(dp277
g9
Nsg10
Nsg11
F104
sg12
I608
sbag1
(g5
g6
NtRp278
(dp279
g9
Nsg10
Nsg11
F107
sg12
I609
sbag1
(g5
g6
NtRp280
(dp281
g9
Nsg10
Nsg11
F111
sg12
I610
sbag1
(g5
g6
NtRp282
(dp283
g9
Nsg10
Nsg11
F113.5
sg12
I611
sbag1
(g5
g6
NtRp284
(dp285
g9
Nsg10
Nsg11
F117
sg12
I612
sbag1
(g5
g6
NtRp286
(dp287
g9
Nsg10
Nsg11
F120.5
sg12
I613
sbag1
(g5
g6
NtRp288
(dp289
g9
Nsg10
Nsg11
F124
sg12
I614
sbag1
(g5
g6
NtRp290
(dp291
g9
Nsg10
Nsg11
F127
sg12
I615
sbag1
(g5
g6
NtRp292
(dp293
g9
Nsg10
Nsg11
F131
sg12
I616
sbag1
(g5
g6
NtRp294
(dp295
g9
Nsg10
Nsg11
F134.5
sg12
I617
sbag1
(g5
g6
NtRp296
(dp297
g9
Nsg10
Nsg11
F137
sg12
I618
sbag1
(g5
g6
NtRp298
(dp299
g9
Nsg10
Nsg11
F140.5
sg12
I619
sbag1
(g5
g6
NtRp300
(dp301
g9
Nsg10
Nsg11
F143.5
sg12
I620
sbag1
(g5
g6
NtRp302
(dp303
g9
Nsg10
Nsg11
F147
sg12
I621
sbag1
(g5
g6
NtRp304
(dp305
g9
Nsg10
Nsg11
F149
sg12
I622
sbag1
(g175
g6
NtRp306
(dp307
g9
I621
sg10
Nsg11
F75
sg12
I623
sbag1
(g5
g6
NtRp308
(dp309
g9
Nsg10
Nsg11
F152.5
sg12
I623
sbag1
(g5
g6
NtRp310
(dp311
g9
Nsg10
Nsg11
F156
sg12
I624
sbag1
(g5
g6
NtRp312
(dp313
g9
Nsg10
Nsg11
F160
sg12
I625
sbag1
(g5
g6
NtRp314
(dp315
g9
Nsg10
Nsg11
F162.5
sg12
I626
sbag1
(g5
g6
NtRp316
(dp317
g9
Nsg10
Nsg11
F166
sg12
I627
sbag1
(g5
g6
NtRp318
(dp319
g9
Nsg10
Nsg11
F169
sg12
I628
sbag1
(g175
g6
NtRp320
(dp321
g9
I626
sg10
Nsg11
F84
sg12
I629
sbag1
(g5
g6
NtRp322
(dp323
g9
Nsg10
Nsg11
F172
sg12
I629
sbag1
(g5
g6
NtRp324
(dp325
g9
Nsg10
Nsg11
F175.5
sg12
I630
sbag1
(g5
g6
NtRp326
(dp327
g9
Nsg10
Nsg11
F179
sg12
I631
sbag1
(g5
g6
NtRp328
(dp329
g9
Nsg10
Nsg11
F182
sg12
I632
sbag1
(g5
g6
NtRp330
(dp331
g9
Nsg10
Nsg11
F185
sg12
I633
sbag1
(g175
g6
NtRp332
(dp333
g9
I631
sg10
Nsg11
F97
sg12
I634
sbag1
(g5
g6
NtRp334
(dp335
g9
Nsg10
Nsg11
F188.5
sg12
I634
sbag1
(g5
g6
NtRp336
(dp337
g9
Nsg10
Nsg11
F191
sg12
I635
sbag1
(g5
g6
NtRp338
(dp339
g9
Nsg10
Nsg11
F194.5
sg12
I636
sbag1
(g5
g6
NtRp340
(dp341
g9
Nsg10
Nsg11
F197.5
sg12
I637
sbag1
(g5
g6
NtRp342
(dp343
g9
Nsg10
Nsg11
F200
sg12
I638
sbag1
(g175
g6
NtRp344
(dp345
g9
I636
sg10
Nsg11
F113
sg12
I639
sbag1
(g5
g6
NtRp346
(dp347
g9
Nsg10
Nsg11
F203.5
sg12
I639
sbag1
(g5
g6
NtRp348
(dp349
g9
Nsg10
Nsg11
F206.5
sg12
I640
sbag1
(g5
g6
NtRp350
(dp351
g9
Nsg10
Nsg11
F209.5
sg12
I641
sbag1
(g5
g6
NtRp352
(dp353
g9
Nsg10
Nsg11
F212.5
sg12
I642
sbag1
(g5
g6
NtRp354
(dp355
g9
Nsg10
Nsg11
F215.5
sg12
I643
sbag1
(g175
g6
NtRp356
(dp357
g9
I641
sg10
Nsg11
F130
sg12
I644
sbag1
(g5
g6
NtRp358
(dp359
g9
Nsg10
Nsg11
F218.5
sg12
I644
sbag1
(g5
g6
NtRp360
(dp361
g9
Nsg10
Nsg11
F221.5
sg12
I645
sbag1
(g5
g6
NtRp362
(dp363
g9
Nsg10
Nsg11
F224.5
sg12
I646
sbag1
(g5
g6
NtRp364
(dp365
g9
Nsg10
Nsg11
F227.5
sg12
I647
sbag1
(g5
g6
NtRp366
(dp367
g9
Nsg10
Nsg11
F231
sg12
I648
sbag1
(g175
g6
NtRp368
(dp369
g9
I646
sg10
Nsg11
F145
sg12
I649
sbag1
(g5
g6
NtRp370
(dp371
g9
Nsg10
Nsg11
F233.5
sg12
I649
sbag1
(g5
g6
NtRp372
(dp373
g9
Nsg10
Nsg11
F236.5
sg12
I650
sbag1
(g5
g6
NtRp374
(dp375
g9
Nsg10
Nsg11
F239.5
sg12
I651
sbag1
(g5
g6
NtRp376
(dp377
g9
Nsg10
Nsg11
F242.5
sg12
I652
sbag1
(g5
g6
NtRp378
(dp379
g9
Nsg10
Nsg11
F245.5
sg12
I653
sbag1
(g175
g6
NtRp380
(dp381
g9
I652
sg10
Nsg11
F159
sg12
I654
sbag1
(g5
g6
NtRp382
(dp383
g9
Nsg10
Nsg11
F248
sg12
I654
sbag1
(g5
g6
NtRp384
(dp385
g9
Nsg10
Nsg11
F251.5
sg12
I655
sbag1
(g5
g6
NtRp386
(dp387
g9
Nsg10
Nsg11
F254
sg12
I656
sbag1
(g5
g6
NtRp388
(dp389
g9
Nsg10
Nsg11
F257.5
sg12
I657
sbag1
(g5
g6
NtRp390
(dp391
g9
Nsg10
Nsg11
F260
sg12
I658
sbag1
(g175
g6
NtRp392
(dp393
g9
I657
sg10
Nsg11
F172
sg12
I659
sbag1
(g5
g6
NtRp394
(dp395
g9
Nsg10
Nsg11
F263.5
sg12
I659
sbag1
(g5
g6
NtRp396
(dp397
g9
Nsg10
Nsg11
F266
sg12
I660
sbag1
(g5
g6
NtRp398
(dp399
g9
Nsg10
Nsg11
F269.5
sg12
I661
sbag1
(g5
g6
NtRp400
(dp401
g9
Nsg10
Nsg11
F272.5
sg12
I662
sbag1
(g5
g6
NtRp402
(dp403
g9
Nsg10
Nsg11
F275.5
sg12
I663
sbag1
(g5
g6
NtRp404
(dp405
g9
Nsg10
Nsg11
F278
sg12
I664
sbag1
(g175
g6
NtRp406
(dp407
g9
I662
sg10
Nsg11
F189
sg12
I665
sbag1
(g5
g6
NtRp408
(dp409
g9
Nsg10
Nsg11
F281.5
sg12
I665
sbag1
(g5
g6
NtRp410
(dp411
g9
Nsg10
Nsg11
F284.5
sg12
I666
sbag1
(g5
g6
NtRp412
(dp413
g9
Nsg10
Nsg11
F288
sg12
I667
sbag1
(g5
g6
NtRp414
(dp415
g9
Nsg10
Nsg11
F291
sg12
I668
sbag1
(g5
g6
NtRp416
(dp417
g9
Nsg10
Nsg11
F294.5
sg12
I669
sbag1
(g5
g6
NtRp418
(dp419
g9
Nsg10
Nsg11
F297.5
sg12
I670
sbag1
(g5
g6
NtRp420
(dp421
g9
Nsg10
Nsg11
F300.5
sg12
I671
sbag1
(g5
g6
NtRp422
(dp423
g9
Nsg10
Nsg11
F303.5
sg12
I672
sbag1
(g5
g6
NtRp424
(dp425
g9
Nsg10
Nsg11
F306.5
sg12
I673
sbag1
(g5
g6
NtRp426
(dp427
g9
Nsg10
Nsg11
F310
sg12
I674
sbag1
(g175
g6
NtRp428
(dp429
g9
I672
sg10
Nsg11
F206
sg12
I675
sbag1
(g5
g6
NtRp430
(dp431
g9
Nsg10
Nsg11
F313
sg12
I675
sbag1
(g5
g6
NtRp432
(dp433
g9
Nsg10
Nsg11
F316
sg12
I676
sbag1
(g5
g6
NtRp434
(dp435
g9
Nsg10
Nsg11
F319
sg12
I677
sbag1
(g5
g6
NtRp436
(dp437
g9
Nsg10
Nsg11
F322.5
sg12
I678
sbag1
(g5
g6
NtRp438
(dp439
g9
Nsg10
Nsg11
F325.5
sg12
I679
sbag1
(g175
g6
NtRp440
(dp441
g9
I677
sg10
Nsg11
F222
sg12
I680
sbag1
(g5
g6
NtRp442
(dp443
g9
Nsg10
Nsg11
F328.5
sg12
I680
sbag1
(g5
g6
NtRp444
(dp445
g9
Nsg10
Nsg11
F331.5
sg12
I681
sbag1
(g5
g6
NtRp446
(dp447
g9
Nsg10
Nsg11
F334.5
sg12
I682
sbag1
(g5
g6
NtRp448
(dp449
g9
Nsg10
Nsg11
F337.5
sg12
I683
sbag1
(g5
g6
NtRp450
(dp451
g9
Nsg10
Nsg11
F341
sg12
I684
sbag1
(g175
g6
NtRp452
(dp453
g9
I682
sg10
Nsg11
F236
sg12
I685
sbag1
(g5
g6
NtRp454
(dp455
g9
Nsg10
Nsg11
F343.5
sg12
I685
sbag1
(g5
g6
NtRp456
(dp457
g9
Nsg10
Nsg11
F347
sg12
I686
sbag1
(g5
g6
NtRp458
(dp459
g9
Nsg10
Nsg11
F350
sg12
I687
sbag1
(g5
g6
NtRp460
(dp461
g9
Nsg10
Nsg11
F352.5
sg12
I688
sbag1
(g5
g6
NtRp462
(dp463
g9
Nsg10
Nsg11
F355.5
sg12
I689
sbag1
(g5
g6
NtRp464
(dp465
g9
Nsg10
Nsg11
F357.5
sg12
I690
sbag1
(g5
g6
NtRp466
(dp467
g9
Nsg10
Nsg11
F359.5
sg12
I691
sbag1
(g5
g6
NtRp468
(dp469
g9
Nsg10
Nsg11
F362
sg12
I692
sbag1
(g5
g6
NtRp470
(dp471
g9
Nsg10
Nsg11
F364
sg12
I693
sbag1
(g5
g6
NtRp472
(dp473
g9
Nsg10
Nsg11
F365.5
sg12
I694
sbag1
(g175
g6
NtRp474
(dp475
g9
I692
sg10
Nsg11
F251
sg12
I695
sbag1
(g5
g6
NtRp476
(dp477
g9
Nsg10
Nsg11
F367.5
sg12
I695
sbag1
(g5
g6
NtRp478
(dp479
g9
Nsg10
Nsg11
F369.5
sg12
I696
sbag1
(g5
g6
NtRp480
(dp481
g9
Nsg10
Nsg11
F370.5
sg12
I697
sbag1
(g5
g6
NtRp482
(dp483
g9
Nsg10
Nsg11
F372
sg12
I698
sbag1
(g5
g6
NtRp484
(dp485
g9
Nsg10
Nsg11
F373
sg12
I699
sbag1
(g175
g6
NtRp486
(dp487
g9
I697
sg10
Nsg11
F268
sg12
I700
sbag1
(g5
g6
NtRp488
(dp489
g9
Nsg10
Nsg11
F374
sg12
I700
sbag1
(g5
g6
NtRp490
(dp491
g9
Nsg10
Nsg11
F375
sg12
I701
sbag1
(g5
g6
NtRp492
(dp493
g9
Nsg10
Nsg11
F376
sg12
I702
sbag1
(g5
g6
NtRp494
(dp495
g9
Nsg10
Nsg11
F377
sg12
I703
sbag1
(g5
g6
NtRp496
(dp497
g9
Nsg10
Nsg11
F377.5
sg12
I704
sbag1
(g5
g6
NtRp498
(dp499
g9
Nsg10
Nsg11
F378.5
sg12
I705
sbag1
(g5
g6
NtRp500
(dp501
g9
Nsg10
Nsg11
F379.5
sg12
I706
sbag1
(g5
g6
NtRp502
(dp503
g9
Nsg10
Nsg11
F379
sg12
I707
sbag1
(g5
g6
NtRp504
(dp505
g9
Nsg10
Nsg11
F380
sg12
I708
sbag1
(g175
g6
NtRp506
(dp507
g9
I708
sg10
Nsg11
F283
sg12
I710
sbag1
(g5
g6
NtRp508
(dp509
g9
Nsg10
Nsg11
F380.5
sg12
I711
sbag1
(g5
g6
NtRp510
(dp511
g9
Nsg10
Nsg11
F380
sg12
I712
sbag1
(g175
g6
NtRp512
(dp513
g9
I713
sg10
Nsg11
F300
sg12
I715
sbag1
(g5
g6
NtRp514
(dp515
g9
Nsg10
Nsg11
F379.5
sg12
I719
sbag1
(g175
g6
NtRp516
(dp517
g9
I718
sg10
Nsg11
F314
sg12
I721
sbag1
(g5
g6
NtRp518
(dp519
g9
Nsg10
Nsg11
F379
sg12
I723
sbag1
(g5
g6
NtRp520
(dp521
g9
Nsg10
Nsg11
F378.5
sg12
I725
sbag1
(g5
g6
NtRp522
(dp523
g9
Nsg10
Nsg11
F379
sg12
I727
sbag1
(g5
g6
NtRp524
(dp525
g9
Nsg10
Nsg11
F378.5
sg12
I729
sbag1
(g5
g6
NtRp526
(dp527
g9
Nsg10
Nsg11
F377.5
sg12
I730
sbag1
(g175
g6
NtRp528
(dp529
g9
I728
sg10
Nsg11
F342
sg12
I731
sbag1
(g5
g6
NtRp530
(dp531
g9
Nsg10
Nsg11
F378.5
sg12
I731
sbag1
(g5
g6
NtRp532
(dp533
g9
Nsg10
Nsg11
F378
sg12
I735
sbag1
(g175
g6
NtRp534
(dp535
g9
I733
sg10
Nsg11
F356
sg12
I736
sbag1
(g5
g6
NtRp536
(dp537
g9
Nsg10
Nsg11
F378.5
sg12
I736
sbag1
(g175
g6
NtRp538
(dp539
g9
I738
sg10
Nsg11
F369
sg12
I741
sbag1
(g5
g6
NtRp540
(dp541
g9
Nsg10
Nsg11
F379
sg12
I743
sbag1
(g175
g6
NtRp542
(dp543
g9
I743
sg10
Nsg11
F374
sg12
I747
sbag1
(g5
g6
NtRp544
(dp545
g9
Nsg10
Nsg11
F378.5
sg12
I756
sbag1
(g5
g6
NtRp546
(dp547
g9
Nsg10
Nsg11
F379
sg12
I761
sbag1
(g5
g6
NtRp548
(dp549
g9
Nsg10
Nsg11
F379.5
sg12
I779
sbag1
(g5
g6
NtRp550
(dp551
g9
Nsg10
Nsg11
F379
sg12
I780
sbag1
(g5
g6
NtRp552
(dp553
g9
Nsg10
Nsg11
F379.5
sg12
I792
sbag1
(g5
g6
NtRp554
(dp555
g9
Nsg10
Nsg11
F379
sg12
I800
sbag1
(g5
g6
NtRp556
(dp557
g9
Nsg10
Nsg11
F378.5
sg12
I816
sbag1
(g5
g6
NtRp558
(dp559
g9
Nsg10
Nsg11
F379
sg12
I842
sbag1
(g175
g6
NtRp560
(dp561
g9
I763
sg10
Nsg11
F378
sg12
I848
sbag1
(g5
g6
NtRp562
(dp563
g9
Nsg10
Nsg11
F380
sg12
I851
sbag1
(g5
g6
NtRp564
(dp565
g9
Nsg10
Nsg11
F379
sg12
I852
sbag1
(g5
g6
NtRp566
(dp567
g9
Nsg10
Nsg11
F379.5
sg12
I857
sbag1
(g5
g6
NtRp568
(dp569
g9
Nsg10
Nsg11
F379
sg12
I861
sbag1
(g5
g6
NtRp570
(dp571
g9
Nsg10
Nsg11
F379.5
sg12
I864
sbag1
(g5
g6
NtRp572
(dp573
g9
Nsg10
Nsg11
F379
sg12
I873
sbag1
(g5
g6
NtRp574
(dp575
g9
Nsg10
Nsg11
F378.5
sg12
I875
sbag1
(g5
g6
NtRp576
(dp577
g9
Nsg10
Nsg11
F379.5
sg12
I876
sbag1
(g5
g6
NtRp578
(dp579
g9
Nsg10
Nsg11
F378.5
sg12
I878
sbag1
(g5
g6
NtRp580
(dp581
g9
Nsg10
Nsg11
F378
sg12
I881
sbag1
(g5
g6
NtRp582
(dp583
g9
Nsg10
Nsg11
F378.5
sg12
I882
sbag1
(g5
g6
NtRp584
(dp585
g9
Nsg10
Nsg11
F378
sg12
I891
sbag1
(g5
g6
NtRp586
(dp587
g9
Nsg10
Nsg11
F378.5
sg12
I892
sbag1
(g5
g6
NtRp588
(dp589
g9
Nsg10
Nsg11
F378
sg12
I897
sbag1
(g5
g6
NtRp590
(dp591
g9
Nsg10
Nsg11
F378.5
sg12
I899
sbag1
(g5
g6
NtRp592
(dp593
g9
Nsg10
Nsg11
F379
sg12
I900
sbag1
(g5
g6
NtRp594
(dp595
g9
Nsg10
Nsg11
F378.5
sg12
I901
sbag1
(g5
g6
NtRp596
(dp597
g9
Nsg10
Nsg11
F378
sg12
I902
sbag1
(g5
g6
NtRp598
(dp599
g9
Nsg10
Nsg11
F379.5
sg12
I903
sbag1
(g5
g6
NtRp600
(dp601
g9
Nsg10
Nsg11
F378.5
sg12
I904
sbag1
(g5
g6
NtRp602
(dp603
g9
Nsg10
Nsg11
F379
sg12
I905
sbag1
(g5
g6
NtRp604
(dp605
g9
Nsg10
Nsg11
F378.5
sg12
I907
sbag1
(g5
g6
NtRp606
(dp607
g9
Nsg10
Nsg11
F380
sg12
I908
sbag1
(g5
g6
NtRp608
(dp609
g9
Nsg10
Nsg11
F379.5
sg12
I909
sbag1
(g5
g6
NtRp610
(dp611
g9
Nsg10
Nsg11
F379
sg12
I910
sbag1
(g5
g6
NtRp612
(dp613
g9
Nsg10
Nsg11
F379.5
sg12
I911
sbag1
(g5
g6
NtRp614
(dp615
g9
Nsg10
Nsg11
F380
sg12
I914
sbag1
(g5
g6
NtRp616
(dp617
g9
Nsg10
Nsg11
F379.5
sg12
I916
sbag1
(g5
g6
NtRp618
(dp619
g9
Nsg10
Nsg11
F378.5
sg12
I918
sbag1
(g5
g6
NtRp620
(dp621
g9
Nsg10
Nsg11
F380
sg12
I919
sbag1
(g5
g6
NtRp622
(dp623
g9
Nsg10
Nsg11
F379.5
sg12
I920
sbag1
(g5
g6
NtRp624
(dp625
g9
Nsg10
Nsg11
F380
sg12
I921
sbag1
(g5
g6
NtRp626
(dp627
g9
Nsg10
Nsg11
F379
sg12
I922
sbag1
(g5
g6
NtRp628
(dp629
g9
Nsg10
Nsg11
F380
sg12
I923
sbag1
(g5
g6
NtRp630
(dp631
g9
Nsg10
Nsg11
F379
sg12
I925
sbag1
(g5
g6
NtRp632
(dp633
g9
Nsg10
Nsg11
F380
sg12
I926
sbag1
(g5
g6
NtRp634
(dp635
g9
Nsg10
Nsg11
F380.5
sg12
I927
sbag1
(g5
g6
NtRp636
(dp637
g9
Nsg10
Nsg11
F380
sg12
I928
sbag1
(g5
g6
NtRp638
(dp639
g9
Nsg10
Nsg11
F379.5
sg12
I930
sbag1
(g5
g6
NtRp640
(dp641
g9
Nsg10
Nsg11
F380
sg12
I931
sbag1
(g5
g6
NtRp642
(dp643
g9
Nsg10
Nsg11
F379.5
sg12
I932
sbag1
(g5
g6
NtRp644
(dp645
g9
Nsg10
Nsg11
F380
sg12
I940
sbag1
(g5
g6
NtRp646
(dp647
g9
Nsg10
Nsg11
F379.5
sg12
I941
sbag1
(g5
g6
NtRp648
(dp649
g9
Nsg10
Nsg11
F379
sg12
I946
sbag1
(g5
g6
NtRp650
(dp651
g9
Nsg10
Nsg11
F380
sg12
I948
sbag1
(g5
g6
NtRp652
(dp653
g9
Nsg10
Nsg11
F379.5
sg12
I953
sbag1
(g5
g6
NtRp654
(dp655
g9
Nsg10
Nsg11
F380
sg12
I954
sbag1
(g5
g6
NtRp656
(dp657
g9
Nsg10
Nsg11
F379.5
sg12
I957
sbag1
(g5
g6
NtRp658
(dp659
g9
Nsg10
Nsg11
F380
sg12
I978
sbag1
(g5
g6
NtRp660
(dp661
g9
Nsg10
Nsg11
F380.5
sg12
I996
sbag1
(g5
g6
NtRp662
(dp663
g9
Nsg10
Nsg11
F380
sg12
I1005
sbag1
(g5
g6
NtRp664
(dp665
g9
Nsg10
Nsg11
F379.5
sg12
I1008
sbag1
(g5
g6
NtRp666
(dp667
g9
Nsg10
Nsg11
F377.5
sg12
I1013
sbag1
(g5
g6
NtRp668
(dp669
g9
Nsg10
Nsg11
F378
sg12
I1017
sbag1
(g5
g6
NtRp670
(dp671
g9
Nsg10
Nsg11
F380
sg12
I1018
sbag1
(g5
g6
NtRp672
(dp673
g9
Nsg10
Nsg11
F379.5
sg12
I1022
sbag1
(g5
g6
NtRp674
(dp675
g9
Nsg10
Nsg11
F379
sg12
I1029
sbag1
(g5
g6
NtRp676
(dp677
g9
Nsg10
Nsg11
F379.5
sg12
I1032
sbag1
(g5
g6
NtRp678
(dp679
g9
Nsg10
Nsg11
F380
sg12
I1046
sbag1
(g5
g6
NtRp680
(dp681
g9
Nsg10
Nsg11
F379.5
sg12
I1050
sbag1
(g5
g6
NtRp682
(dp683
g9
Nsg10
Nsg11
F380
sg12
I1054
sbag1
(g5
g6
NtRp684
(dp685
g9
Nsg10
Nsg11
F380.5
sg12
I1066
sbag1
(g5
g6
NtRp686
(dp687
g9
Nsg10
Nsg11
F380
sg12
I1068
sbag1
(g5
g6
NtRp688
(dp689
g9
Nsg10
Nsg11
F379.5
sg12
I1087
sbag1
(g5
g6
NtRp690
(dp691
g9
Nsg10
Nsg11
F379
sg12
I1088
sbag1
(g5
g6
NtRp692
(dp693
g9
Nsg10
Nsg11
F380
sg12
I1090
sbag1
(g5
g6
NtRp694
(dp695
g9
Nsg10
Nsg11
F379.5
sg12
I1091
sbag1
(g5
g6
NtRp696
(dp697
g9
Nsg10
Nsg11
F380
sg12
I1097
sbag1
(g5
g6
NtRp698
(dp699
g9
Nsg10
Nsg11
F379.5
sg12
I1104
sbag1
(g5
g6
NtRp700
(dp701
g9
Nsg10
Nsg11
F380
sg12
I1116
sbag1
(g5
g6
NtRp702
(dp703
g9
Nsg10
Nsg11
F380.5
sg12
I1125
sbag1
(g5
g6
NtRp704
(dp705
g9
Nsg10
Nsg11
F380
sg12
I1130
sbag1
(g5
g6
NtRp706
(dp707
g9
Nsg10
Nsg11
F379
sg12
I1140
sbag1
(g5
g6
NtRp708
(dp709
g9
Nsg10
Nsg11
F380
sg12
I1152
sbag1
(g5
g6
NtRp710
(dp711
g9
Nsg10
Nsg11
F379.5
sg12
I1164
sbag1
(g5
g6
NtRp712
(dp713
g9
Nsg10
Nsg11
F380
sg12
I1169
sbag1
(g5
g6
NtRp714
(dp715
g9
Nsg10
Nsg11
F379.5
sg12
I1189
sbag1
(g5
g6
NtRp716
(dp717
g9
Nsg10
Nsg11
F380
sg12
I1190
sbag1
(g5
g6
NtRp718
(dp719
g9
Nsg10
Nsg11
F379.5
sg12
I1191
sbag1
(g5
g6
NtRp720
(dp721
g9
Nsg10
Nsg11
F380
sg12
I1194
sbag1
(g5
g6
NtRp722
(dp723
g9
Nsg10
Nsg11
F379.5
sg12
I1197
sbag1
(g5
g6
NtRp724
(dp725
g9
Nsg10
Nsg11
F380.5
sg12
I1198
sbag1
(g5
g6
NtRp726
(dp727
g9
Nsg10
Nsg11
F379
sg12
I1199
sbag1
(g5
g6
NtRp728
(dp729
g9
Nsg10
Nsg11
F380
sg12
I1200
sbag1
(g5
g6
NtRp730
(dp731
g9
Nsg10
Nsg11
F379.5
sg12
I1201
sbag1
(g5
g6
NtRp732
(dp733
g9
Nsg10
Nsg11
F378
sg12
I1202
sbag1
(g5
g6
NtRp734
(dp735
g9
Nsg10
Nsg11
F379.5
sg12
I1203
sbag1
(g5
g6
NtRp736
(dp737
g9
Nsg10
Nsg11
F379
sg12
I1207
sbag1
(g5
g6
NtRp738
(dp739
g9
Nsg10
Nsg11
F379.5
sg12
I1212
sbag1
(g5
g6
NtRp740
(dp741
g9
Nsg10
Nsg11
F379
sg12
I1213
sbag1
(g5
g6
NtRp742
(dp743
g9
Nsg10
Nsg11
F379.5
sg12
I1214
sbag1
(g5
g6
NtRp744
(dp745
g9
Nsg10
Nsg11
F380
sg12
I1215
sbag1
(g5
g6
NtRp746
(dp747
g9
Nsg10
Nsg11
F379
sg12
I1216
sbag1
(g5
g6
NtRp748
(dp749
g9
Nsg10
Nsg11
F379.5
sg12
I1217
sbag1
(g5
g6
NtRp750
(dp751
g9
Nsg10
Nsg11
F379
sg12
I1218
sbag1
(g5
g6
NtRp752
(dp753
g9
Nsg10
Nsg11
F379.5
sg12
I1219
sbag1
(g5
g6
NtRp754
(dp755
g9
Nsg10
Nsg11
F379
sg12
I1220
sbag1
(g5
g6
NtRp756
(dp757
g9
Nsg10
Nsg11
F378.5
sg12
I1222
sbag1
(g5
g6
NtRp758
(dp759
g9
Nsg10
Nsg11
F379
sg12
I1223
sbag1
(g5
g6
NtRp760
(dp761
g9
Nsg10
Nsg11
F378.5
sg12
I1224
sbag1
(g5
g6
NtRp762
(dp763
g9
Nsg10
Nsg11
F379
sg12
I1225
sbag1
(g5
g6
NtRp764
(dp765
g9
Nsg10
Nsg11
F378.5
sg12
I1226
sbag1
(g5
g6
NtRp766
(dp767
g9
Nsg10
Nsg11
F379
sg12
I1227
sbag1
(g5
g6
NtRp768
(dp769
g9
Nsg10
Nsg11
F378.5
sg12
I1228
sbag1
(g5
g6
NtRp770
(dp771
g9
Nsg10
Nsg11
F378
sg12
I1229
sbag1
(g5
g6
NtRp772
(dp773
g9
Nsg10
Nsg11
F379.5
sg12
I1230
sbag1
(g5
g6
NtRp774
(dp775
g9
Nsg10
Nsg11
F379
sg12
I1232
sbag1
(g5
g6
NtRp776
(dp777
g9
Nsg10
Nsg11
F378.5
sg12
I1236
sbag1
(g5
g6
NtRp778
(dp779
g9
Nsg10
Nsg11
F379
sg12
I1254
sbag1
(g175
g6
NtRp780
(dp781
g9
I1258
sg10
Nsg11
Nsg12
I1258
sbag1
(g5
g6
NtRp782
(dp783
g9
Nsg10
Nsg11
F379.5
sg12
I1272
sbag1
(g5
g6
NtRp784
(dp785
g9
Nsg10
Nsg11
F379
sg12
I1279
sbag1
(g5
g6
NtRp786
(dp787
g9
Nsg10
Nsg11
F379.5
sg12
I1284
sbag1
(g5
g6
NtRp788
(dp789
g9
Nsg10
Nsg11
F380
sg12
I1287
sbag1
(g5
g6
NtRp790
(dp791
g9
Nsg10
Nsg11
F379
sg12
I1289
sbag1
(g5
g6
NtRp792
(dp793
g9
Nsg10
Nsg11
F378.5
sg12
I1298
sbag1
(g5
g6
NtRp794
(dp795
g9
Nsg10
Nsg11
F379
sg12
I1303
sbag1
(g5
g6
NtRp796
(dp797
g9
Nsg10
Nsg11
F378.5
sg12
I1304
sbag1
(g5
g6
NtRp798
(dp799
g9
Nsg10
Nsg11
F378
sg12
I1305
sbag1
(g5
g6
NtRp800
(dp801
g9
Nsg10
Nsg11
F379
sg12
I1306
sbag1
(g5
g6
NtRp802
(dp803
g9
Nsg10
Nsg11
F378.5
sg12
I1310
sbag1
(g5
g6
NtRp804
(dp805
g9
Nsg10
Nsg11
F379
sg12
I1311
sbag1
(g5
g6
NtRp806
(dp807
g9
Nsg10
Nsg11
F378.5
sg12
I1312
sbag1
(g5
g6
NtRp808
(dp809
g9
Nsg10
Nsg11
F379
sg12
I1313
sbag1
(g5
g6
NtRp810
(dp811
g9
Nsg10
Nsg11
F379.5
sg12
I1315
sbag1
(g5
g6
NtRp812
(dp813
g9
Nsg10
Nsg11
F379
sg12
I1316
sbag1
(g5
g6
NtRp814
(dp815
g9
Nsg10
Nsg11
F379.5
sg12
I1319
sbag1
(g5
g6
NtRp816
(dp817
g9
Nsg10
Nsg11
F379
sg12
I1321
sbag1
(g5
g6
NtRp818
(dp819
g9
Nsg10
Nsg11
F379.5
sg12
I1322
sbag1
(g5
g6
NtRp820
(dp821
g9
Nsg10
Nsg11
F379
sg12
I1323
sbag1
(g5
g6
NtRp822
(dp823
g9
Nsg10
Nsg11
F380
sg12
I1325
sbag1
(g5
g6
NtRp824
(dp825
g9
Nsg10
Nsg11
F379.5
sg12
I1326
sbag1
(g5
g6
NtRp826
(dp827
g9
Nsg10
Nsg11
F380
sg12
I1327
sbag1
(g5
g6
NtRp828
(dp829
g9
Nsg10
Nsg11
F379.5
sg12
I1328
sbag1
(g5
g6
NtRp830
(dp831
g9
Nsg10
Nsg11
F380.5
sg12
I1329
sbag1
(g5
g6
NtRp832
(dp833
g9
Nsg10
Nsg11
F379.5
sg12
I1331
sbag1
(g5
g6
NtRp834
(dp835
g9
Nsg10
Nsg11
F379
sg12
I1332
sbag1
(g5
g6
NtRp836
(dp837
g9
Nsg10
Nsg11
F380
sg12
I1333
sbag1
(g5
g6
NtRp838
(dp839
g9
Nsg10
Nsg11
F379.5
sg12
I1337
sbag1
(g5
g6
NtRp840
(dp841
g9
Nsg10
Nsg11
F379
sg12
I1338
sbag1
(g5
g6
NtRp842
(dp843
g9
Nsg10
Nsg11
F378.5
sg12
I1342
sbag1
(g5
g6
NtRp844
(dp845
g9
Nsg10
Nsg11
F379
sg12
I1343
sbag1
(g5
g6
NtRp846
(dp847
g9
Nsg10
Nsg11
F380
sg12
I1344
sbag1
(g5
g6
NtRp848
(dp849
g9
Nsg10
Nsg11
F380.5
sg12
I1346
sbag1
(g5
g6
NtRp850
(dp851
g9
Nsg10
Nsg11
F380
sg12
I1347
sbag1
(g5
g6
NtRp852
(dp853
g9
Nsg10
Nsg11
F380.5
sg12
I1368
sbag1
(g5
g6
NtRp854
(dp855
g9
Nsg10
Nsg11
F380
sg12
I1376
sbag1
(g5
g6
NtRp856
(dp857
g9
Nsg10
Nsg11
F380.5
sg12
I1440
sbag1
(g5
g6
NtRp858
(dp859
g9
Nsg10
Nsg11
F380
sg12
I1447
sbag1
(g5
g6
NtRp860
(dp861
g9
Nsg10
Nsg11
F380.5
sg12
I1473
sbag1
(g5
g6
NtRp862
(dp863
g9
Nsg10
Nsg11
F380
sg12
I1476
sbag1
(g5
g6
NtRp864
(dp865
g9
Nsg10
Nsg11
F379.5
sg12
I1508
sbag1
(g5
g6
NtRp866
(dp867
g9
Nsg10
Nsg11
F380
sg12
I1509
sbag1
(g5
g6
NtRp868
(dp869
g9
Nsg10
Nsg11
F380.5
sg12
I1511
sbag1
(g5
g6
NtRp870
(dp871
g9
Nsg10
Nsg11
F379.5
sg12
I1513
sbag1
(g5
g6
NtRp872
(dp873
g9
Nsg10
Nsg11
F380
sg12
I1514
sbag1
(g5
g6
NtRp874
(dp875
g9
Nsg10
Nsg11
F379.5
sg12
I1516
sbag1
(g5
g6
NtRp876
(dp877
g9
Nsg10
Nsg11
F380
sg12
I1517
sbag1
(g5
g6
NtRp878
(dp879
g9
Nsg10
Nsg11
F379.5
sg12
I1518
sbag1
(g5
g6
NtRp880
(dp881
g9
Nsg10
Nsg11
F379
sg12
I1519
sbag1
(g5
g6
NtRp882
(dp883
g9
Nsg10
Nsg11
F378.5
sg12
I1520
sbag1
(g5
g6
NtRp884
(dp885
g9
Nsg10
Nsg11
F379.5
sg12
I1521
sbag1
(g5
g6
NtRp886
(dp887
g9
Nsg10
Nsg11
F380
sg12
I1523
sbag1
(g5
g6
NtRp888
(dp889
g9
Nsg10
Nsg11
F379
sg12
I1524
sbag1
(g5
g6
NtRp890
(dp891
g9
Nsg10
Nsg11
F378.5
sg12
I1530
sbag1
(g5
g6
NtRp892
(dp893
g9
Nsg10
Nsg11
F379
sg12
I1531
sbag1
(g5
g6
NtRp894
(dp895
g9
Nsg10
Nsg11
F378.5
sg12
I1534
sbag1
(g5
g6
NtRp896
(dp897
g9
Nsg10
Nsg11
F379
sg12
I1537
sbag1
(g5
g6
NtRp898
(dp899
g9
Nsg10
Nsg11
F378.5
sg12
I1539
sbag1
(g5
g6
NtRp900
(dp901
g9
Nsg10
Nsg11
F379
sg12
I1542
sbag1
(g5
g6
NtRp902
(dp903
g9
Nsg10
Nsg11
F378.5
sg12
I1544
sbag1
(g5
g6
NtRp904
(dp905
g9
Nsg10
Nsg11
F379
sg12
I1546
sbag1
(g5
g6
NtRp906
(dp907
g9
Nsg10
Nsg11
F378.5
sg12
I1548
sbag1
(g5
g6
NtRp908
(dp909
g9
Nsg10
Nsg11
F380
sg12
I1549
sbag1
(g5
g6
NtRp910
(dp911
g9
Nsg10
Nsg11
F378.5
sg12
I1557
sbag1
(g5
g6
NtRp912
(dp913
g9
Nsg10
Nsg11
F379
sg12
I1560
sbag1
(g5
g6
NtRp914
(dp915
g9
Nsg10
Nsg11
F379.5
sg12
I1564
sbag1
(g5
g6
NtRp916
(dp917
g9
Nsg10
Nsg11
F379
sg12
I1567
sbag1
(g5
g6
NtRp918
(dp919
g9
Nsg10
Nsg11
F378
sg12
I1569
sbag1
(g5
g6
NtRp920
(dp921
g9
Nsg10
Nsg11
F379
sg12
I1572
sbag1
(g5
g6
NtRp922
(dp923
g9
Nsg10
Nsg11
F378.5
sg12
I1620
sbag1
(g5
g6
NtRp924
(dp925
g9
Nsg10
Nsg11
F379
sg12
I1628
sbag1
(g5
g6
NtRp926
(dp927
g9
Nsg10
Nsg11
F378.5
sg12
I1692
sbag1
(g5
g6
NtRp928
(dp929
g9
Nsg10
Nsg11
F379
sg12
I1701
sbag1
(g5
g6
NtRp930
(dp931
g9
Nsg10
Nsg11
F378.5
sg12
I1704
sbag1
(g5
g6
NtRp932
(dp933
g9
Nsg10
Nsg11
F378
sg12
I1711
sbag1
(g5
g6
NtRp934
(dp935
g9
Nsg10
Nsg11
F379
sg12
I1715
sbag1
(g5
g6
NtRp936
(dp937
g9
Nsg10
Nsg11
F378
sg12
I1733
sbag1
(g5
g6
NtRp938
(dp939
g9
Nsg10
Nsg11
F377
sg12
I1736
sbag1
(g5
g6
NtRp940
(dp941
g9
Nsg10
Nsg11
F376.5
sg12
I1737
sbag1
(g5
g6
NtRp942
(dp943
g9
Nsg10
Nsg11
F376
sg12
I1738
sbag1
(g5
g6
NtRp944
(dp945
g9
Nsg10
Nsg11
F375
sg12
I1739
sbag1
(g5
g6
NtRp946
(dp947
g9
Nsg10
Nsg11
F374.5
sg12
I1740
sbag1
(g5
g6
NtRp948
(dp949
g9
Nsg10
Nsg11
F373.5
sg12
I1741
sbag1
(g5
g6
NtRp950
(dp951
g9
Nsg10
Nsg11
F372.5
sg12
I1742
sbag1
(g5
g6
NtRp952
(dp953
g9
Nsg10
Nsg11
F372
sg12
I1743
sbag1
(g5
g6
NtRp954
(dp955
g9
Nsg10
Nsg11
F371
sg12
I1744
sbag1
(g5
g6
NtRp956
(dp957
g9
Nsg10
Nsg11
F370.5
sg12
I1745
sbag1
(g5
g6
NtRp958
(dp959
g9
Nsg10
Nsg11
F369
sg12
I1746
sbag1
(g5
g6
NtRp960
(dp961
g9
Nsg10
Nsg11
F367.5
sg12
I1747
sbag1
(g5
g6
NtRp962
(dp963
g9
Nsg10
Nsg11
F366.5
sg12
I1748
sbag1
(g5
g6
NtRp964
(dp965
g9
Nsg10
Nsg11
F365.5
sg12
I1749
sbag1
(g5
g6
NtRp966
(dp967
g9
Nsg10
Nsg11
F364
sg12
I1750
sbag1
(g5
g6
NtRp968
(dp969
g9
Nsg10
Nsg11
F362.5
sg12
I1751
sbag1
(g5
g6
NtRp970
(dp971
g9
Nsg10
Nsg11
F361
sg12
I1752
sbag1
(g5
g6
NtRp972
(dp973
g9
Nsg10
Nsg11
F359
sg12
I1753
sbag1
(g5
g6
NtRp974
(dp975
g9
Nsg10
Nsg11
F358
sg12
I1754
sbag1
(g5
g6
NtRp976
(dp977
g9
Nsg10
Nsg11
F356
sg12
I1755
sbag1
(g5
g6
NtRp978
(dp979
g9
Nsg10
Nsg11
F354
sg12
I1756
sbag1
(g5
g6
NtRp980
(dp981
g9
Nsg10
Nsg11
F352
sg12
I1757
sbag1
(g5
g6
NtRp982
(dp983
g9
Nsg10
Nsg11
F350
sg12
I1758
sbag1
(g5
g6
NtRp984
(dp985
g9
Nsg10
Nsg11
F349
sg12
I1759
sbag1
(g5
g6
NtRp986
(dp987
g9
Nsg10
Nsg11
F347.5
sg12
I1760
sbag1
(g5
g6
NtRp988
(dp989
g9
Nsg10
Nsg11
F346
sg12
I1761
sbag1
(g5
g6
NtRp990
(dp991
g9
Nsg10
Nsg11
F344.5
sg12
I1762
sbag1
(g5
g6
NtRp992
(dp993
g9
Nsg10
Nsg11
F343.5
sg12
I1763
sbag1
(g5
g6
NtRp994
(dp995
g9
Nsg10
Nsg11
F342
sg12
I1764
sbag1
(g5
g6
NtRp996
(dp997
g9
Nsg10
Nsg11
F341.5
sg12
I1765
sbag1
(g5
g6
NtRp998
(dp999
g9
Nsg10
Nsg11
F339.5
sg12
I1766
sbag1
(g5
g6
NtRp1000
(dp1001
g9
Nsg10
Nsg11
F339
sg12
I1767
sbag1
(g5
g6
NtRp1002
(dp1003
g9
Nsg10
Nsg11
F338
sg12
I1768
sbag1
(g5
g6
NtRp1004
(dp1005
g9
Nsg10
Nsg11
F337
sg12
I1769
sbag1
(g5
g6
NtRp1006
(dp1007
g9
Nsg10
Nsg11
F336.5
sg12
I1770
sbag1
(g5
g6
NtRp1008
(dp1009
g9
Nsg10
Nsg11
F335.5
sg12
I1771
sbag1
(g5
g6
NtRp1010
(dp1011
g9
Nsg10
Nsg11
F334.5
sg12
I1772
sbag1
(g175
g6
NtRp1012
(dp1013
g9
I1770
sg10
Nsg11
F375
sg12
I1774
sbag1
(g5
g6
NtRp1014
(dp1015
g9
Nsg10
Nsg11
F333.5
sg12
I1774
sbag1
(g5
g6
NtRp1016
(dp1017
g9
Nsg10
Nsg11
F333
sg12
I1775
sbag1
(g5
g6
NtRp1018
(dp1019
g9
Nsg10
Nsg11
F332.5
sg12
I1776
sbag1
(g5
g6
NtRp1020
(dp1021
g9
Nsg10
Nsg11
F332
sg12
I1777
sbag1
(g175
g6
NtRp1022
(dp1023
g9
I1775
sg10
Nsg11
F369
sg12
I1778
sbag1
(g5
g6
NtRp1024
(dp1025
g9
Nsg10
Nsg11
F331.5
sg12
I1779
sbag1
(g175
g6
NtRp1026
(dp1027
g9
I1780
sg10
Nsg11
F364
sg12
I1783
sbag1
(g175
g6
NtRp1028
(dp1029
g9
I1785
sg10
Nsg11
F354
sg12
I1788
sbag1
(g5
g6
NtRp1030
(dp1031
g9
Nsg10
Nsg11
F332.5
sg12
I1788
sbag1
(g5
g6
NtRp1032
(dp1033
g9
Nsg10
Nsg11
F332
sg12
I1789
sbag1
(g175
g6
NtRp1034
(dp1035
g9
I1790
sg10
Nsg11
F348
sg12
I1793
sbag1
(g5
g6
NtRp1036
(dp1037
g9
Nsg10
Nsg11
F332.5
sg12
I1793
sbag1
(g5
g6
NtRp1038
(dp1039
g9
Nsg10
Nsg11
F332
sg12
I1794
sbag1
(g175
g6
NtRp1040
(dp1041
g9
I1795
sg10
Nsg11
F344
sg12
I1798
sbag1
(g5
g6
NtRp1042
(dp1043
g9
Nsg10
Nsg11
F332.5
sg12
I1798
sbag1
(g5
g6
NtRp1044
(dp1045
g9
Nsg10
Nsg11
F333
sg12
I1800
sbag1
(g5
g6
NtRp1046
(dp1047
g9
Nsg10
Nsg11
F332.5
sg12
I1807
sbag1
(g175
g6
NtRp1048
(dp1049
g9
I1805
sg10
Nsg11
F340
sg12
I1809
sbag1
(g5
g6
NtRp1050
(dp1051
g9
Nsg10
Nsg11
F333
sg12
I1809
sbag1
(g5
g6
NtRp1052
(dp1053
g9
Nsg10
Nsg11
F332.5
sg12
I1812
sbag1
(g175
g6
NtRp1054
(dp1055
g9
I1811
sg10
Nsg11
F336
sg12
I1820
sbag1
(g5
g6
NtRp1056
(dp1057
g9
Nsg10
Nsg11
F332
sg12
I1828
sbag1
(g5
g6
NtRp1058
(dp1059
g9
Nsg10
Nsg11
F332.5
sg12
I1836
sbag1
(g5
g6
NtRp1060
(dp1061
g9
Nsg10
Nsg11
F332
sg12
I1846
sbag1
(g5
g6
NtRp1062
(dp1063
g9
Nsg10
Nsg11
F332.5
sg12
I1848
sbag1
(g5
g6
NtRp1064
(dp1065
g9
Nsg10
Nsg11
F333
sg12
I1851
sbag1
(g5
g6
NtRp1066
(dp1067
g9
Nsg10
Nsg11
F332
sg12
I1872
sbag1
(g175
g6
NtRp1068
(dp1069
g9
I1836
sg10
Nsg11
F332
sg12
I1875
sbag1
(g5
g6
NtRp1070
(dp1071
g9
Nsg10
Nsg11
F332.5
sg12
I1880
sbag1
(g5
g6
NtRp1072
(dp1073
g9
Nsg10
Nsg11
F332
sg12
I1883
sbag1
(g5
g6
NtRp1074
(dp1075
g9
Nsg10
Nsg11
F332.5
sg12
I1891
sbag1
(g5
g6
NtRp1076
(dp1077
g9
Nsg10
Nsg11
F333
sg12
I1908
sbag1
(g5
g6
NtRp1078
(dp1079
g9
Nsg10
Nsg11
F332.5
sg12
I1913
sbag1
(g5
g6
NtRp1080
(dp1081
g9
Nsg10
Nsg11
F333
sg12
I1919
sbag1
(g5
g6
NtRp1082
(dp1083
g9
Nsg10
Nsg11
F332.5
sg12
I1920
sbag1
(g5
g6
NtRp1084
(dp1085
g9
Nsg10
Nsg11
F332
sg12
I1929
sbag1
(g5
g6
NtRp1086
(dp1087
g9
Nsg10
Nsg11
F332.5
sg12
I1932
sbag1
(g5
g6
NtRp1088
(dp1089
g9
Nsg10
Nsg11
F332
sg12
I1944
sbag1
(g5
g6
NtRp1090
(dp1091
g9
Nsg10
Nsg11
F332.5
sg12
I1953
sbag1
(g5
g6
NtRp1092
(dp1093
g9
Nsg10
Nsg11
F332
sg12
I1954
sbag1
(g5
g6
NtRp1094
(dp1095
g9
Nsg10
Nsg11
F332.5
sg12
I1956
sbag1
(g5
g6
NtRp1096
(dp1097
g9
Nsg10
Nsg11
F332
sg12
I1960
sbag1
(g5
g6
NtRp1098
(dp1099
g9
Nsg10
Nsg11
F331.5
sg12
I1961
sbag1
(g5
g6
NtRp1100
(dp1101
g9
Nsg10
Nsg11
F330.5
sg12
I1963
sbag1
(g5
g6
NtRp1102
(dp1103
g9
Nsg10
Nsg11
F329.5
sg12
I1964
sbag1
(g5
g6
NtRp1104
(dp1105
g9
Nsg10
Nsg11
F328
sg12
I1965
sbag1
(g5
g6
NtRp1106
(dp1107
g9
Nsg10
Nsg11
F327
sg12
I1966
sbag1
(g5
g6
NtRp1108
(dp1109
g9
Nsg10
Nsg11
F326
sg12
I1967
sbag1
(g5
g6
NtRp1110
(dp1111
g9
Nsg10
Nsg11
F325
sg12
I1968
sbag1
(g5
g6
NtRp1112
(dp1113
g9
Nsg10
Nsg11
F323
sg12
I1969
sbag1
(g5
g6
NtRp1114
(dp1115
g9
Nsg10
Nsg11
F321.5
sg12
I1970
sbag1
(g5
g6
NtRp1116
(dp1117
g9
Nsg10
Nsg11
F319.5
sg12
I1971
sbag1
(g5
g6
NtRp1118
(dp1119
g9
Nsg10
Nsg11
F318
sg12
I1972
sbag1
(g5
g6
NtRp1120
(dp1121
g9
Nsg10
Nsg11
F316.5
sg12
I1973
sbag1
(g5
g6
NtRp1122
(dp1123
g9
Nsg10
Nsg11
F314
sg12
I1974
sbag1
(g5
g6
NtRp1124
(dp1125
g9
Nsg10
Nsg11
F312
sg12
I1975
sbag1
(g5
g6
NtRp1126
(dp1127
g9
Nsg10
Nsg11
F309.5
sg12
I1976
sbag1
(g5
g6
NtRp1128
(dp1129
g9
Nsg10
Nsg11
F307.5
sg12
I1977
sbag1
(g5
g6
NtRp1130
(dp1131
g9
Nsg10
Nsg11
F304.5
sg12
I1978
sbag1
(g5
g6
NtRp1132
(dp1133
g9
Nsg10
Nsg11
F302.5
sg12
I1979
sbag1
(g5
g6
NtRp1134
(dp1135
g9
Nsg10
Nsg11
F300
sg12
I1980
sbag1
(g5
g6
NtRp1136
(dp1137
g9
Nsg10
Nsg11
F297
sg12
I1981
sbag1
(g5
g6
NtRp1138
(dp1139
g9
Nsg10
Nsg11
F293.5
sg12
I1982
sbag1
(g5
g6
NtRp1140
(dp1141
g9
Nsg10
Nsg11
F290.5
sg12
I1983
sbag1
(g5
g6
NtRp1142
(dp1143
g9
Nsg10
Nsg11
F287.5
sg12
I1984
sbag1
(g5
g6
NtRp1144
(dp1145
g9
Nsg10
Nsg11
F284
sg12
I1985
sbag1
(g5
g6
NtRp1146
(dp1147
g9
Nsg10
Nsg11
F280.5
sg12
I1986
sbag1
(g5
g6
NtRp1148
(dp1149
g9
Nsg10
Nsg11
F277
sg12
I1987
sbag1
(g5
g6
NtRp1150
(dp1151
g9
Nsg10
Nsg11
F274
sg12
I1988
sbag1
(g5
g6
NtRp1152
(dp1153
g9
Nsg10
Nsg11
F270.5
sg12
I1989
sbag1
(g5
g6
NtRp1154
(dp1155
g9
Nsg10
Nsg11
F267.5
sg12
I1990
sbag1
(g5
g6
NtRp1156
(dp1157
g9
Nsg10
Nsg11
F264
sg12
I1991
sbag1
(g5
g6
NtRp1158
(dp1159
g9
Nsg10
Nsg11
F261
sg12
I1992
sbag1
(g5
g6
NtRp1160
(dp1161
g9
Nsg10
Nsg11
F258
sg12
I1993
sbag1
(g5
g6
NtRp1162
(dp1163
g9
Nsg10
Nsg11
F254.5
sg12
I1994
sbag1
(g5
g6
NtRp1164
(dp1165
g9
Nsg10
Nsg11
F251
sg12
I1995
sbag1
(g5
g6
NtRp1166
(dp1167
g9
Nsg10
Nsg11
F248
sg12
I1996
sbag1
(g5
g6
NtRp1168
(dp1169
g9
Nsg10
Nsg11
F244.5
sg12
I1997
sbag1
(g5
g6
NtRp1170
(dp1171
g9
Nsg10
Nsg11
F241.5
sg12
I1998
sbag1
(g5
g6
NtRp1172
(dp1173
g9
Nsg10
Nsg11
F238.5
sg12
I1999
sbatRp1174
.