# device: ACPI0C50:00 18D1:5028 Touchpad
# bit: 0B 00 00 00 00 00 00 00
# key: 00 00 00 00 00 00 00 00 00 00 00 00 00 00 00 00 00 00 00 00 00 00 00 00 00 00 00 00 00 00 00 00 00 00 01 00 00 00 00 00 20 E5 00 00 00 00 00 00 00 00 00 00 00 00 00 00 00 00 00 00 00 00 00 00 00 00 00 00 00 00 00 00 00 00 00 00 00 00 00 00 00 00 00 00 00 00 00 00 00 00 00 00 00 00 00 00
# rel: 00 00 00 00 00 00 00 00
# abs: 03 00 00 01 00 80 73 0E
# led: 00 00 00 00 00 00 00 00
# prp: 05 00 00 00 00 00 00 00
# absinfo: 0 0 13184 0 0 128
# absinfo: 1 0 8704 0 0 128
# absinfo: 24 0 255 0 0 0
# absinfo: 47 0 9 0 0 0
# absinfo: 48 0 13184 0 0 194
# absinfo: 49 0 8704 0 0 128
# absinfo: 52 0 1 0 0 0
# absinfo: 53 0 13184 0 0 128
# absinfo: 54 0 8704 0 0 128
# absinfo: 57 0 65535 0 0 0
# absinfo: 58 0 255 0 0 0
# absinfo: 59 0 1 0 0 0
E: 70096.333695 0003 002f 0
E: 70096.333695 0003 0039 -1
E: 70096.333695 0003 002f 1
E: 70096.333695 0003 0039 -1
E: 70096.333695 0003 002f 2
E: 70096.333695 0003 0039 -1
E: 70096.333695 0003 002f 3
E: 70096.333695 0003 0039 -1
E: 70096.333695 0003 002f 4
E: 70096.333695 0003 0039 -1
E: 70096.333695 0003 002f 5
E: 70096.333695 0003 0039 -1
E: 70096.333695 0003 002f 6
E: 70096.333695 0003 0039 -1
E: 70096.333695 0003 002f 7
E: 70096.333695 0003 0039 -1
E: 70096.333695 0003 002f 8
E: 70096.333695 0003 0039 -1
E: 70096.333695 0003 002f 9
E: 70096.333695 0003 0039 -1
E: 70096.333695 0003 002f 0
E: 70096.333695 0000 0000 0
E: 70096.336206 0003 0039 19762
E: 70096.336206 0003 0035 6592
E: 70096.336206 0003 0036 4352
E: 70096.336206 0003 003b 1
E: 70096.336206 0003 0034 0
E: 70096.336206 0003 003a 0
E: 70096.336206 0003 0030 0
E: 70096.336206 0003 0031 0
E: 70096.336206 0001 014a 1
E: 70096.336206 0001 0145 1
E: 70096.336206 0003 0000 6592
E: 70096.336206 0003 0001 4352
E: 70096.336206 0000 0000 0
E: 70096.706065 0003 0035 8059
E: 70096.706065 0003 0036 4295
E: 70096.706065 0003 003b 0
E: 70096.706065 0003 0034 1
E: 70096.706065 0003 003a 6
E: 70096.706065 0003 0030 395
E: 70096.706065 0003 0031 378
E: 70096.706065 0003 0000 8059
E: 70096.706065 0003 0001 4295
E: 70096.706065 0003 0018 6
E: 70096.706065 0000 0000 0
E: 70096.715516 0003 0035 8055
E: 70096.715516 0003 0036 4292
E: 70096.715516 0003 003a 9
E: 70096.715516 0003 0030 392
E: 70096.715516 0003 0031 377
E: 70096.715516 0003 0000 8055
E: 70096.715516 0003 0001 4292
E: 70096.715516 0003 0018 9
E: 70096.715516 0000 0000 0
E: 70096.721135 0003 0035 8037
E: 70096.721135 0003 0036 4278
E: 70096.721135 0003 0030 387
E: 70096.721135 0003 0031 376
E: 70096.721135 0003 0000 8037
E: 70096.721135 0003 0001 4278
E: 70096.721135 0000 0000 0
E: 70096.726593 0003 0035 8019
E: 70096.726593 0003 0036 4254
E: 70096.726593 0003 003a 8
E: 70096.726593 0003 0030 384
E: 70096.726593 0003 0031 375
E: 70096.726593 0003 0000 8019
E: 70096.726593 0003 0001 4254
E: 70096.726593 0003 0018 8
E: 70096.726593 0000 0000 0
E: 70096.732058 0003 0035 8005
E: 70096.732058 0003 0036 4236
E: 70096.732058 0003 003a 7
E: 70096.732058 0003 0030 401
E: 70096.732058 0003 0031 385
E: 70096.732058 0003 0000 8005
E: 70096.732058 0003 0001 4236
E: 70096.732058 0003 0018 7
E: 70096.732058 0000 0000 0
E: 70096.741366 0003 0035 7994
E: 70096.741366 0003 0036 4218
E: 70096.741366 0003 003a 5
E: 70096.741366 0003 0030 411
E: 70096.741366 0003 0031 403
E: 70096.741366 0003 0000 7994
E: 70096.741366 0003 0001 4218
E: 70096.741366 0003 0018 5
E: 70096.741366 0000 0000 0
E: 70096.743423 0003 0039 -1
E: 70096.743423 0001 014a 0
E: 70096.743423 0001 0145 0
E: 70096.743423 0003 0018 0
E: 70096.743423 0000 0000 0
E: 70096.746740 0003 0039 19763
E: 70096.746740 0003 0035 6592
E: 70096.746740 0003 0036 4352
E: 70096.746740 0003 003b 1
E: 70096.746740 0003 0034 0
E: 70096.746740 0003 003a 0
E: 70096.746740 0003 0030 0
E: 70096.746740 0003 0031 0
E: 70096.746740 0001 014a 1
E: 70096.746740 0001 0145 1
E: 70096.746740 0003 0000 6592
E: 70096.746740 0003 0001 4352
E: 70096.746740 0000 0000 0
E: 70097.316732 0003 0039 -1
E: 70097.316732 0001 014a 0
E: 70097.316732 0001 0145 0
E: 70097.316732 0000 0000 0
E: 70097.433242 0003 0039 19764
E: 70097.433242 0001 014a 1
E: 70097.433242 0001 0145 1
E: 70097.433242 0000 0000 0
E: 70097.455072 0003 0035 7224
E: 70097.455072 0003 0036 4440
E: 70097.455072 0003 003b 0
E: 70097.455072 0003 0034 1
E: 70097.455072 0003 003a 9
E: 70097.455072 0003 0030 409
E: 70097.455072 0003 0031 393
E: 70097.455072 0003 0000 7224
E: 70097.455072 0003 0001 4440
E: 70097.455072 0003 0018 9
E: 70097.455072 0000 0000 0
E: 70097.460566 0003 0035 7231
E: 70097.460566 0003 0036 4438
E: 70097.460566 0003 003a 11
E: 70097.460566 0003 0030 406
E: 70097.460566 0003 0031 390
E: 70097.460566 0003 0000 7231
E: 70097.460566 0003 0001 4438
E: 70097.460566 0003 0018 11
E: 70097.460566 0000 0000 0
E: 70097.469291 0003 0035 7237
E: 70097.469291 0003 0036 4434
E: 70097.469291 0003 003a 13
E: 70097.469291 0003 0030 413
E: 70097.469291 0003 0000 7237
E: 70097.469291 0003 0001 4434
E: 70097.469291 0003 0018 13
E: 70097.469291 0000 0000 0
E: 70097.474563 0003 0035 7243
E: 70097.474563 0003 0036 4435
E: 70097.474563 0003 003a 14
E: 70097.474563 0003 0030 412
E: 70097.474563 0003 0031 391
E: 70097.474563 0003 0000 7243
E: 70097.474563 0003 0001 4435
E: 70097.474563 0003 0018 14
E: 70097.474563 0000 0000 0
E: 70097.479893 0003 0035 7251
E: 70097.479893 0003 0036 4433
E: 70097.479893 0003 0030 409
E: 70097.479893 0003 0000 7251
E: 70097.479893 0003 0001 4433
E: 70097.479893 0000 0000 0
E: 70097.489245 0003 0035 7258
E: 70097.489245 0003 0036 4431
E: 70097.489245 0003 003a 15
E: 70097.489245 0003 0030 410
E: 70097.489245 0003 0000 7258
E: 70097.489245 0003 0001 4431
E: 70097.489245 0003 0018 15
E: 70097.489245 0000 0000 0
E: 70097.494782 0003 0035 7272
E: 70097.494782 0003 0036 4425
E: 70097.494782 0003 0030 411
E: 70097.494782 0003 0031 392
E: 70097.494782 0003 0000 7272
E: 70097.494782 0003 0001 4425
E: 70097.494782 0000 0000 0
E: 70097.499901 0003 0035 7286
E: 70097.499901 0003 0036 4420
E: 70097.499901 0003 003a 16
E: 70097.499901 0003 0030 412
E: 70097.499901 0003 0031 393
E: 70097.499901 0003 0000 7286
E: 70097.499901 0003 0001 4420
E: 70097.499901 0003 0018 16
E: 70097.499901 0000 0000 0
E: 70097.504091 0003 003a 15
E: 70097.504091 0003 0018 15
E: 70097.504091 0000 0000 0
E: 70097.509463 0003 0035 7300
E: 70097.509463 0003 0036 4415
E: 70097.509463 0003 0031 390
E: 70097.509463 0003 0000 7300
E: 70097.509463 0003 0001 4415
E: 70097.509463 0000 0000 0
E: 70097.514629 0003 0035 7316
E: 70097.514629 0003 0036 4407
E: 70097.514629 0003 003a 16
E: 70097.514629 0003 0030 413
E: 70097.514629 0003 0031 391
E: 70097.514629 0003 0000 7316
E: 70097.514629 0003 0001 4407
E: 70097.514629 0003 0018 16
E: 70097.514629 0000 0000 0
E: 70097.519992 0003 0035 7332
E: 70097.519992 0003 0036 4403
E: 70097.519992 0003 0030 411
E: 70097.519992 0003 0031 390
E: 70097.519992 0003 0000 7332
E: 70097.519992 0003 0001 4403
E: 70097.519992 0000 0000 0
E: 70097.529578 0003 0035 7345
E: 70097.529578 0003 0036 4396
E: 70097.529578 0003 0030 412
E: 70097.529578 0003 0031 393
E: 70097.529578 0003 0000 7345
E: 70097.529578 0003 0001 4396
E: 70097.529578 0000 0000 0
E: 70097.534934 0003 0035 7359
E: 70097.534934 0003 0036 4391
E: 70097.534934 0003 0030 414
E: 70097.534934 0003 0031 391
E: 70097.534934 0003 0000 7359
E: 70097.534934 0003 0001 4391
E: 70097.534934 0000 0000 0
E: 70097.540226 0003 0035 7373
E: 70097.540226 0003 0036 4385
E: 70097.540226 0003 003a 15
E: 70097.540226 0003 0030 412
E: 70097.540226 0003 0000 7373
E: 70097.540226 0003 0001 4385
E: 70097.540226 0003 0018 15
E: 70097.540226 0000 0000 0
E: 70097.545618 0003 0035 7390
E: 70097.545618 0003 0036 4382
E: 70097.545618 0003 0030 408
E: 70097.545618 0003 0031 390
E: 70097.545618 0003 0000 7390
E: 70097.545618 0003 0001 4382
E: 70097.545618 0000 0000 0
E: 70097.555036 0003 0035 7403
E: 70097.555036 0003 0036 4378
E: 70097.555036 0003 003a 14
E: 70097.555036 0003 0030 405
E: 70097.555036 0003 0031 389
E: 70097.555036 0003 0000 7403
E: 70097.555036 0003 0001 4378
E: 70097.555036 0003 0018 14
E: 70097.555036 0000 0000 0
E: 70097.560808 0003 0035 7413
E: 70097.560808 0003 0036 4372
E: 70097.560808 0003 003a 12
E: 70097.560808 0003 0030 407
E: 70097.560808 0003 0031 396
E: 70097.560808 0003 0000 7413
E: 70097.560808 0003 0001 4372
E: 70097.560808 0003 0018 12
E: 70097.560808 0000 0000 0
E: 70097.566640 0003 0035 7414
E: 70097.566640 0003 0036 4371
E: 70097.566640 0003 003a 9
E: 70097.566640 0003 0030 413
E: 70097.566640 0003 0031 406
E: 70097.566640 0003 0000 7414
E: 70097.566640 0003 0001 4371
E: 70097.566640 0003 0018 9
E: 70097.566640 0000 0000 0
E: 70097.571850 0003 0035 7407
E: 70097.571850 0003 0036 4365
E: 70097.571850 0003 003a 7
E: 70097.571850 0003 0030 426
E: 70097.571850 0003 0031 424
E: 70097.571850 0003 0000 7407
E: 70097.571850 0003 0001 4365
E: 70097.571850 0003 0018 7
E: 70097.571850 0000 0000 0
E: 70097.575394 0003 0036 4364
E: 70097.575394 0003 0001 4364
E: 70097.575394 0000 0000 0
E: 70097.578633 0003 0039 -1
E: 70097.578633 0001 014a 0
E: 70097.578633 0001 0145 0
E: 70097.578633 0003 0018 0
E: 70097.578633 0000 0000 0
E: 70097.580883 0003 0039 19765
E: 70097.580883 0003 0035 6592
E: 70097.580883 0003 0036 4352
E: 70097.580883 0003 003b 1
E: 70097.580883 0003 0034 0
E: 70097.580883 0003 003a 0
E: 70097.580883 0003 0030 0
E: 70097.580883 0003 0031 0
E: 70097.580883 0001 014a 1
E: 70097.580883 0001 0145 1
E: 70097.580883 0003 0000 6592
E: 70097.580883 0003 0001 4352
E: 70097.580883 0000 0000 0
E: 70098.150301 0003 0039 -1
E: 70098.150301 0001 014a 0
E: 70098.150301 0001 0145 0
E: 70098.150301 0000 0000 0
E: 70099.856842 0003 0039 19766
E: 70099.856842 0001 014a 1
E: 70099.856842 0001 0145 1
E: 70099.856842 0000 0000 0
E: 70100.420609 0003 0039 -1
E: 70100.420609 0001 014a 0
E: 70100.420609 0001 0145 0
E: 70100.420609 0000 0000 0
E: 70101.608765 0003 0039 19767
E: 70101.608765 0001 014a 1
E: 70101.608765 0001 0145 1
E: 70101.608765 0000 0000 0
E: 70102.183742 0003 0039 -1
E: 70102.183742 0001 014a 0
E: 70102.183742 0001 0145 0
E: 70102.183742 0000 0000 0
E: 70102.184242 0003 002f 0
E: 70102.184242 0003 0039 -1
E: 70102.184242 0003 002f 1
E: 70102.184242 0003 0039 -1
E: 70102.184242 0003 002f 2
E: 70102.184242 0003 0039 -1
E: 70102.184242 0003 002f 3
E: 70102.184242 0003 0039 -1
E: 70102.184242 0003 002f 4
E: 70102.184242 0003 0039 -1
E: 70102.184242 0003 002f 5
E: 70102.184242 0003 0039 -1
E: 70102.184242 0003 002f 6
E: 70102.184242 0003 0039 -1
E: 70102.184242 0003 002f 7
E: 70102.184242 0003 0039 -1
E: 70102.184242 0003 002f 8
E: 70102.184242 0003 0039 -1
E: 70102.184242 0003 002f 9
E: 70102.184242 0003 0039 -1
